EESchema Schematic File Version 4
EELAYER 30 0
EELAYER END
$Descr User 39370 39370
encoding utf-8
Sheet 1 1
Title ""
Date ""
Rev ""
Comp ""
Comment1 ""
Comment2 ""
Comment3 ""
Comment4 ""
$EndDescr
$Comp
L power:+3.3V #PWR0101
U 1 1 5E46B23E
P 2900 4550
F 0 "#PWR0101" H 2900 4400 50  0001 C CNN
F 1 "+3.3V" H 2915 4723 50  0000 C CNN
F 2 "" H 2900 4550 50  0001 C CNN
F 3 "" H 2900 4550 50  0001 C CNN
	1    2900 4550
	1    0    0    -1  
$EndComp
Wire Wire Line
	3550 4550 2900 4550
$Comp
L Device:Crystal Y1
U 1 1 5E46BE87
P 2450 5000
F 0 "Y1" V 2550 4850 50  0000 R CNN
F 1 "ABLS-8.000MHZ-B4-T" V 2450 4850 50  0000 R CNN
F 2 "ABLS-8.000MHZ-B4-T:ABLS" H 2450 5000 50  0001 C CNN
F 3 "~" H 2450 5000 50  0001 C CNN
	1    2450 5000
	0    -1   -1   0   
$EndComp
Wire Wire Line
	3550 4950 2850 4950
Wire Wire Line
	2850 4950 2850 4850
Wire Wire Line
	2850 4850 2450 4850
Wire Wire Line
	3550 5050 2850 5050
Wire Wire Line
	2850 5050 2850 5150
Wire Wire Line
	2850 5150 2450 5150
$Comp
L Device:C C1
U 1 1 5E470C91
P 2250 4850
F 0 "C1" V 2100 4850 50  0000 C CNN
F 1 "C0805X104K1RAC3316" V 2000 4850 50  0000 C CNN
F 2 "C0805X104K1RAC3316:CAPC2012X100N" H 2288 4700 50  0001 C CNN
F 3 "~" H 2250 4850 50  0001 C CNN
	1    2250 4850
	0    1    1    0   
$EndComp
Wire Wire Line
	2450 5150 2400 5150
Connection ~ 2450 5150
Wire Wire Line
	2450 4850 2400 4850
Connection ~ 2450 4850
$Comp
L power:GND #PWR0102
U 1 1 5E474D62
P 1950 4850
F 0 "#PWR0102" H 1950 4600 50  0001 C CNN
F 1 "GND" H 1955 4677 50  0000 C CNN
F 2 "" H 1950 4850 50  0001 C CNN
F 3 "" H 1950 4850 50  0001 C CNN
	1    1950 4850
	1    0    0    -1  
$EndComp
$Comp
L power:GND #PWR0103
U 1 1 5E474E92
P 1950 5150
F 0 "#PWR0103" H 1950 4900 50  0001 C CNN
F 1 "GND" H 1955 4977 50  0000 C CNN
F 2 "" H 1950 5150 50  0001 C CNN
F 3 "" H 1950 5150 50  0001 C CNN
	1    1950 5150
	1    0    0    -1  
$EndComp
Wire Wire Line
	2100 4850 1950 4850
Wire Wire Line
	2100 5150 1950 5150
Wire Wire Line
	3550 5150 2950 5150
Wire Wire Line
	2950 5150 2950 5750
$Comp
L power:GND #PWR0104
U 1 1 5E47ACFA
P 1100 5850
F 0 "#PWR0104" H 1100 5600 50  0001 C CNN
F 1 "GND" H 1105 5677 50  0000 C CNN
F 2 "" H 1100 5850 50  0001 C CNN
F 3 "" H 1100 5850 50  0001 C CNN
	1    1100 5850
	1    0    0    -1  
$EndComp
$Comp
L Device:C C6
U 1 1 5E47C306
P 2400 6200
F 0 "C6" H 2650 5900 50  0000 L CNN
F 1 "C0805X104K1RAC3316" H 2450 6000 50  0000 L CNN
F 2 "C0805X104K1RAC3316:CAPC2012X100N" H 2438 6050 50  0001 C CNN
F 3 "~" H 2400 6200 50  0001 C CNN
	1    2400 6200
	1    0    0    -1  
$EndComp
$Comp
L Device:C C5
U 1 1 5E47C85E
P 2100 6200
F 0 "C5" H 1900 5900 50  0000 L CNN
F 1 "LMK107BJ475MAHT" H 1650 6000 50  0000 L CNN
F 2 "LMK107BJ475MAHT:CAPC1608X90N" H 2138 6050 50  0001 C CNN
F 3 "~" H 2100 6200 50  0001 C CNN
	1    2100 6200
	1    0    0    -1  
$EndComp
$Comp
L power:+3.3V #PWR0105
U 1 1 5E47E881
P 1550 6350
F 0 "#PWR0105" H 1550 6200 50  0001 C CNN
F 1 "+3.3V" H 1565 6523 50  0000 C CNN
F 2 "" H 1550 6350 50  0001 C CNN
F 3 "" H 1550 6350 50  0001 C CNN
	1    1550 6350
	-1   0    0    1   
$EndComp
$Comp
L power:GND #PWR0106
U 1 1 5E47CBE9
P 1800 6050
F 0 "#PWR0106" H 1800 5800 50  0001 C CNN
F 1 "GND" H 1805 5877 50  0000 C CNN
F 2 "" H 1800 6050 50  0001 C CNN
F 3 "" H 1800 6050 50  0001 C CNN
	1    1800 6050
	1    0    0    -1  
$EndComp
Wire Wire Line
	3550 5650 3250 5650
Wire Wire Line
	3250 5650 3250 6050
Wire Wire Line
	3250 6050 2400 6050
Wire Wire Line
	2400 6050 2100 6050
Connection ~ 2400 6050
Wire Wire Line
	2100 6050 1800 6050
Connection ~ 2100 6050
Wire Wire Line
	3550 5750 3300 5750
Wire Wire Line
	3300 5750 3300 6350
Wire Wire Line
	3300 6350 2400 6350
Wire Wire Line
	2400 6350 2100 6350
Connection ~ 2400 6350
Connection ~ 2100 6350
Wire Wire Line
	1550 6350 2100 6350
$Comp
L Device:C C10
U 1 1 5E48C77A
P 4000 8350
F 0 "C10" H 3600 8050 50  0000 L CNN
F 1 "LMK107BJ475MAHT" H 3400 8150 50  0000 L CNN
F 2 "LMK107BJ475MAHT:CAPC1608X90N" H 4038 8200 50  0001 C CNN
F 3 "~" H 4000 8350 50  0001 C CNN
	1    4000 8350
	0    -1   -1   0   
$EndComp
$Comp
L Device:C C16
U 1 1 5E48D921
P 5300 7900
F 0 "C16" H 5100 7550 50  0000 L CNN
F 1 "LMK107BJ475MAHT" H 4850 7650 50  0000 L CNN
F 2 "LMK107BJ475MAHT:CAPC1608X90N" H 5338 7750 50  0001 C CNN
F 3 "~" H 5300 7900 50  0001 C CNN
	1    5300 7900
	0    -1   -1   0   
$EndComp
$Comp
L Device:C C24
U 1 1 5E48EE15
P 6950 4550
F 0 "C24" H 6750 4250 50  0000 L CNN
F 1 "LMK107BJ475MAHT" H 6500 4350 50  0000 L CNN
F 2 "LMK107BJ475MAHT:CAPC1608X90N" H 6988 4400 50  0001 C CNN
F 3 "~" H 6950 4550 50  0001 C CNN
	1    6950 4550
	1    0    0    -1  
$EndComp
$Comp
L Device:C C7
U 1 1 5E490B72
P 3900 3100
F 0 "C7" H 3700 2800 50  0000 L CNN
F 1 "LMK107BJ475MAHT" H 3450 2900 50  0000 L CNN
F 2 "LMK107BJ475MAHT:CAPC1608X90N" H 3938 2950 50  0001 C CNN
F 3 "~" H 3900 3100 50  0001 C CNN
	1    3900 3100
	0    1    1    0   
$EndComp
$Comp
L Device:C C9
U 1 1 5E493240
P 4000 8050
F 0 "C9" H 4100 7650 50  0000 L CNN
F 1 "C0805X104K1RAC3316" H 3600 7750 50  0000 L CNN
F 2 "C0805X104K1RAC3316:CAPC2012X100N" H 4038 7900 50  0001 C CNN
F 3 "~" H 4000 8050 50  0001 C CNN
	1    4000 8050
	0    -1   -1   0   
$EndComp
$Comp
L Device:C C15
U 1 1 5E499543
P 5300 7550
F 0 "C15" H 5400 7100 50  0000 L CNN
F 1 "C0805X104K1RAC3316" H 5000 7200 50  0000 L CNN
F 2 "C0805X104K1RAC3316:CAPC2012X100N" H 5338 7400 50  0001 C CNN
F 3 "~" H 5300 7550 50  0001 C CNN
	1    5300 7550
	0    -1   -1   0   
$EndComp
$Comp
L Device:C C21
U 1 1 5E49F0BF
P 6700 4550
F 0 "C21" H 6650 4300 50  0000 L CNN
F 1 "C0805X104K1RAC3316" H 6300 4200 50  0000 L CNN
F 2 "C0805X104K1RAC3316:CAPC2012X100N" H 6738 4400 50  0001 C CNN
F 3 "~" H 6700 4550 50  0001 C CNN
	1    6700 4550
	-1   0    0    1   
$EndComp
$Comp
L Device:C C8
U 1 1 5E4A1BD9
P 3900 3350
F 0 "C8" H 3750 3200 50  0000 L CNN
F 1 "C0805X104K1RAC3316" H 3500 3100 50  0000 L CNN
F 2 "C0805X104K1RAC3316:CAPC2012X100N" H 3938 3200 50  0001 C CNN
F 3 "~" H 3900 3350 50  0001 C CNN
	1    3900 3350
	0    -1   -1   0   
$EndComp
$Comp
L power:GND #PWR0107
U 1 1 5E4A43DC
P 3850 8550
F 0 "#PWR0107" H 3850 8300 50  0001 C CNN
F 1 "GND" H 3855 8377 50  0000 C CNN
F 2 "" H 3850 8550 50  0001 C CNN
F 3 "" H 3850 8550 50  0001 C CNN
	1    3850 8550
	1    0    0    -1  
$EndComp
$Comp
L power:GND #PWR0108
U 1 1 5E4A48D2
P 5150 8100
F 0 "#PWR0108" H 5150 7850 50  0001 C CNN
F 1 "GND" H 5155 7927 50  0000 C CNN
F 2 "" H 5150 8100 50  0001 C CNN
F 3 "" H 5150 8100 50  0001 C CNN
	1    5150 8100
	1    0    0    -1  
$EndComp
$Comp
L power:GND #PWR0109
U 1 1 5E4A51EF
P 7600 4700
F 0 "#PWR0109" H 7600 4450 50  0001 C CNN
F 1 "GND" H 7605 4527 50  0000 C CNN
F 2 "" H 7600 4700 50  0001 C CNN
F 3 "" H 7600 4700 50  0001 C CNN
	1    7600 4700
	1    0    0    -1  
$EndComp
$Comp
L power:GND #PWR0110
U 1 1 5E4A5DA1
P 4050 2800
F 0 "#PWR0110" H 4050 2550 50  0001 C CNN
F 1 "GND" V 4055 2672 50  0000 R CNN
F 2 "" H 4050 2800 50  0001 C CNN
F 3 "" H 4050 2800 50  0001 C CNN
	1    4050 2800
	-1   0    0    1   
$EndComp
$Comp
L power:+3.3V #PWR0111
U 1 1 5E4A7D3D
P 4150 8550
F 0 "#PWR0111" H 4150 8400 50  0001 C CNN
F 1 "+3.3V" H 4250 8700 50  0000 C CNN
F 2 "" H 4150 8550 50  0001 C CNN
F 3 "" H 4150 8550 50  0001 C CNN
	1    4150 8550
	-1   0    0    1   
$EndComp
$Comp
L power:+3.3V #PWR0112
U 1 1 5E4A9481
P 5450 8100
F 0 "#PWR0112" H 5450 7950 50  0001 C CNN
F 1 "+3.3V" H 5465 8273 50  0000 C CNN
F 2 "" H 5450 8100 50  0001 C CNN
F 3 "" H 5450 8100 50  0001 C CNN
	1    5450 8100
	-1   0    0    1   
$EndComp
$Comp
L power:+3.3V #PWR0113
U 1 1 5E4AA3E3
P 7600 4400
F 0 "#PWR0113" H 7600 4250 50  0001 C CNN
F 1 "+3.3V" H 7615 4573 50  0000 C CNN
F 2 "" H 7600 4400 50  0001 C CNN
F 3 "" H 7600 4400 50  0001 C CNN
	1    7600 4400
	-1   0    0    1   
$EndComp
$Comp
L power:+3.3V #PWR0114
U 1 1 5E4AB62A
P 3750 2850
F 0 "#PWR0114" H 3750 2700 50  0001 C CNN
F 1 "+3.3V" V 3765 2978 50  0000 L CNN
F 2 "" H 3750 2850 50  0001 C CNN
F 3 "" H 3750 2850 50  0001 C CNN
	1    3750 2850
	0    1    1    0   
$EndComp
Wire Wire Line
	3950 7700 3850 7700
Wire Wire Line
	3850 7700 3850 8050
Wire Wire Line
	3850 8050 3850 8350
Connection ~ 3850 8050
Wire Wire Line
	3850 8350 3850 8550
Connection ~ 3850 8350
Wire Wire Line
	4150 8550 4150 8350
Wire Wire Line
	4150 8350 4150 8050
Connection ~ 4150 8350
Wire Wire Line
	4150 8050 4150 7700
Wire Wire Line
	4150 7700 4050 7700
Connection ~ 4150 8050
Wire Wire Line
	5150 8100 5150 7900
Wire Wire Line
	5150 7900 5150 7550
Connection ~ 5150 7900
Wire Wire Line
	5150 7550 5150 7350
Wire Wire Line
	5150 7350 5250 7350
Wire Wire Line
	5250 7350 5250 6750
Connection ~ 5150 7550
Wire Wire Line
	5450 8100 5450 7900
Wire Wire Line
	5450 7900 5450 7550
Connection ~ 5450 7900
Wire Wire Line
	5450 7550 5450 7350
Wire Wire Line
	5450 7350 5350 7350
Wire Wire Line
	5350 7350 5350 6750
Connection ~ 5450 7550
$Comp
L power:+3.3V #PWR0115
U 1 1 5E4BCA01
P 5150 2050
F 0 "#PWR0115" H 5150 1900 50  0001 C CNN
F 1 "+3.3V" H 5165 2223 50  0000 C CNN
F 2 "" H 5150 2050 50  0001 C CNN
F 3 "" H 5150 2050 50  0001 C CNN
	1    5150 2050
	0    1    1    0   
$EndComp
Wire Wire Line
	3850 3850 3850 3550
Wire Wire Line
	3850 3550 3750 3550
Wire Wire Line
	3750 3550 3750 3350
Wire Wire Line
	3750 3100 3750 3350
Connection ~ 3750 3350
Wire Wire Line
	3750 3100 3750 2850
Connection ~ 3750 3100
Wire Wire Line
	3950 3850 3950 3550
Wire Wire Line
	3950 3550 4050 3550
Wire Wire Line
	4050 3550 4050 3350
Wire Wire Line
	4050 3350 4050 3100
Connection ~ 4050 3350
Wire Wire Line
	4050 3100 4050 2800
Connection ~ 4050 3100
Wire Wire Line
	5650 4550 6350 4550
Wire Wire Line
	6350 4550 6350 4400
Wire Wire Line
	6350 4400 6700 4400
Wire Wire Line
	6700 4400 6950 4400
Connection ~ 6700 4400
Wire Wire Line
	6950 4400 7600 4400
Connection ~ 6950 4400
Wire Wire Line
	5650 4650 6350 4650
Wire Wire Line
	6350 4650 6350 4700
Wire Wire Line
	6350 4700 6700 4700
Wire Wire Line
	6700 4700 6950 4700
Connection ~ 6700 4700
Wire Wire Line
	6950 4700 7600 4700
Connection ~ 6950 4700
$Comp
L Device:CP C4
U 1 1 5E4CFF3C
P 1850 3150
F 0 "C4" H 1968 3196 50  0000 L CNN
F 1 "UBC1E221MNS1GS" H 1968 3105 50  0000 L CNN
F 2 "UBC1E221MNS1GS:CAPAE1030X1100N" H 1888 3000 50  0001 C CNN
F 3 "~" H 1850 3150 50  0001 C CNN
	1    1850 3150
	1    0    0    -1  
$EndComp
$Comp
L power:GND #PWR0116
U 1 1 5E4D06FB
P 1850 3300
F 0 "#PWR0116" H 1850 3050 50  0001 C CNN
F 1 "GND" H 1855 3127 50  0000 C CNN
F 2 "" H 1850 3300 50  0001 C CNN
F 3 "" H 1850 3300 50  0001 C CNN
	1    1850 3300
	1    0    0    -1  
$EndComp
$Comp
L power:+3.3V #PWR0117
U 1 1 5E4D082E
P 1850 3000
F 0 "#PWR0117" H 1850 2850 50  0001 C CNN
F 1 "+3.3V" H 1865 3173 50  0000 C CNN
F 2 "" H 1850 3000 50  0001 C CNN
F 3 "" H 1850 3000 50  0001 C CNN
	1    1850 3000
	1    0    0    -1  
$EndComp
$Comp
L Connector:USB_B_Micro J3
U 1 1 5E4D2241
P 8250 5450
F 0 "J3" H 8020 5347 50  0000 R CNN
F 1 "USB_B_Micro" H 8020 5438 50  0000 R CNN
F 2 "10118192-0001LF:101181920001LF" H 8400 5400 50  0001 C CNN
F 3 "~" H 8400 5400 50  0001 C CNN
	1    8250 5450
	0    -1   -1   0   
$EndComp
$Comp
L power:GND #PWR0118
U 1 1 5E4D3892
P 8650 5450
F 0 "#PWR0118" H 8650 5200 50  0001 C CNN
F 1 "GND" H 8600 5300 50  0000 C CNN
F 2 "" H 8650 5450 50  0001 C CNN
F 3 "" H 8650 5450 50  0001 C CNN
	1    8650 5450
	-1   0    0    1   
$EndComp
$Comp
L power:GND #PWR0119
U 1 1 5E4D3B7D
P 8650 5550
F 0 "#PWR0119" H 8650 5300 50  0001 C CNN
F 1 "GND" H 8700 5400 50  0000 C CNN
F 2 "" H 8650 5550 50  0001 C CNN
F 3 "" H 8650 5550 50  0001 C CNN
	1    8650 5550
	0    -1   -1   0   
$EndComp
$Comp
L Device:R R10
U 1 1 5E473A68
P 7600 5150
F 0 "R10" V 7393 5150 50  0000 C CNN
F 1 "RK73H2BTTD43R0F" V 7484 5150 50  0000 C CNN
F 2 "RK73H2BTTD43R0F:RESC3216X70N" V 7530 5150 50  0001 C CNN
F 3 "~" H 7600 5150 50  0001 C CNN
	1    7600 5150
	0    1    1    0   
$EndComp
Wire Wire Line
	8050 5150 7750 5150
$Comp
L power:+5V #PWR0121
U 1 1 5E4CCC88
P 7800 6800
F 0 "#PWR0121" H 7800 6650 50  0001 C CNN
F 1 "+5V" V 7815 6928 50  0000 L CNN
F 2 "" H 7800 6800 50  0001 C CNN
F 3 "" H 7800 6800 50  0001 C CNN
	1    7800 6800
	-1   0    0    1   
$EndComp
$Comp
L Regulator_Linear:NCP1117-3.3_SOT223 U2
U 1 1 5E4C2CF5
P 6650 3050
F 0 "U2" H 6650 3292 50  0000 C CNN
F 1 "NCP1117ST33T3G " H 6650 3201 50  0000 C CNN
F 2 "NCP1117ST33T3G:SOT230P700X180-4N" H 6650 3250 50  0001 C CNN
F 3 "http://www.onsemi.com/pub_link/Collateral/NCP1117-D.PDF" H 6750 2800 50  0001 C CNN
	1    6650 3050
	1    0    0    -1  
$EndComp
$Comp
L power:+5V #PWR0122
U 1 1 5E4C4B5E
P 6150 3050
F 0 "#PWR0122" H 6150 2900 50  0001 C CNN
F 1 "+5V" H 6165 3223 50  0000 C CNN
F 2 "" H 6150 3050 50  0001 C CNN
F 3 "" H 6150 3050 50  0001 C CNN
	1    6150 3050
	-1   0    0    1   
$EndComp
$Comp
L power:+3.3V #PWR0123
U 1 1 5E4C4EC7
P 7150 3050
F 0 "#PWR0123" H 7150 2900 50  0001 C CNN
F 1 "+3.3V" H 7165 3223 50  0000 C CNN
F 2 "" H 7150 3050 50  0001 C CNN
F 3 "" H 7150 3050 50  0001 C CNN
	1    7150 3050
	-1   0    0    1   
$EndComp
$Comp
L power:GND #PWR0124
U 1 1 5E4C5376
P 6650 3350
F 0 "#PWR0124" H 6650 3100 50  0001 C CNN
F 1 "GND" H 6655 3177 50  0000 C CNN
F 2 "" H 6650 3350 50  0001 C CNN
F 3 "" H 6650 3350 50  0001 C CNN
	1    6650 3350
	1    0    0    -1  
$EndComp
Wire Wire Line
	6150 3050 6350 3050
Wire Wire Line
	6950 3050 7150 3050
$Comp
L Device:C C23
U 1 1 5E4CA3F7
P 6950 3400
F 0 "C23" H 7065 3446 50  0000 L CNN
F 1 "GRM188R61A106KE69D" H 7065 3355 50  0000 L CNN
F 2 "GRM188R61A106KE69D:CAPC1608X90N" H 6988 3250 50  0001 C CNN
F 3 "~" H 6950 3400 50  0001 C CNN
	1    6950 3400
	1    0    0    -1  
$EndComp
Wire Wire Line
	6950 3250 6950 3050
Connection ~ 6950 3050
$Comp
L Device:C C20
U 1 1 5E4CBC91
P 6350 3400
F 0 "C20" H 5850 3500 50  0000 L CNN
F 1 "GRM188R61A106KE69D" H 5350 3400 50  0000 L CNN
F 2 "GRM188R61A106KE69D:CAPC1608X90N" H 6388 3250 50  0001 C CNN
F 3 "~" H 6350 3400 50  0001 C CNN
	1    6350 3400
	1    0    0    -1  
$EndComp
Wire Wire Line
	6350 3250 6350 3050
Connection ~ 6350 3050
$Comp
L power:GND #PWR0125
U 1 1 5E4D1F95
P 6350 3550
F 0 "#PWR0125" H 6350 3300 50  0001 C CNN
F 1 "GND" H 6355 3377 50  0000 C CNN
F 2 "" H 6350 3550 50  0001 C CNN
F 3 "" H 6350 3550 50  0001 C CNN
	1    6350 3550
	1    0    0    -1  
$EndComp
$Comp
L power:GND #PWR0126
U 1 1 5E4D26CA
P 6950 3550
F 0 "#PWR0126" H 6950 3300 50  0001 C CNN
F 1 "GND" H 6955 3377 50  0000 C CNN
F 2 "" H 6950 3550 50  0001 C CNN
F 3 "" H 6950 3550 50  0001 C CNN
	1    6950 3550
	1    0    0    -1  
$EndComp
$Comp
L DRV8320SRTVR:DRV8320SRTVR IC2
U 1 1 5E5622C8
P 12150 2950
F 0 "IC2" H 13550 3400 50  0000 L CNN
F 1 "DRV8320SRTVR" H 13550 3300 50  0000 L CNN
F 2 "DRV8320SRTVR:QFN50P500X500X80-33N-D" H 13400 3350 50  0001 L CNN
F 3 "http://www.ti.com/lit/gpn/drv8320" H 13400 3250 50  0001 L CNN
F 4 "60V Three-Phase Smart Gate Driver" H 13400 3150 50  0001 L CNN "Description"
F 5 "0.8" H 13400 3050 50  0001 L CNN "Height"
F 6 "595-DRV8320SRTVR" H 13400 2950 50  0001 L CNN "Mouser Part Number"
F 7 "https://www.mouser.com/Search/Refine.aspx?Keyword=595-DRV8320SRTVR" H 13400 2850 50  0001 L CNN "Mouser Price/Stock"
F 8 "Texas Instruments" H 13400 2750 50  0001 L CNN "Manufacturer_Name"
F 9 "DRV8320SRTVR" H 13400 2650 50  0001 L CNN "Manufacturer_Part_Number"
	1    12150 2950
	1    0    0    -1  
$EndComp
$Comp
L Device:C C31
U 1 1 5E56C672
P 11450 3100
F 0 "C31" H 11350 2900 50  0000 L CNN
F 1 "UMK212B7105KG-T" H 11200 2800 50  0000 L CNN
F 2 "885012207078:CAPC2012X135N" H 11488 2950 50  0001 C CNN
F 3 "~" H 11450 3100 50  0001 C CNN
	1    11450 3100
	1    0    0    -1  
$EndComp
$Comp
L Device:C C30
U 1 1 5E56CFC2
P 11050 3100
F 0 "C30" H 11000 2800 50  0000 L CNN
F 1 "C0805X104K1RAC3316" H 10600 2700 50  0000 L CNN
F 2 "C0805X104K1RAC3316:CAPC2012X100N" H 11088 2950 50  0001 C CNN
F 3 "~" H 11050 3100 50  0001 C CNN
	1    11050 3100
	1    0    0    -1  
$EndComp
$Comp
L Device:C C29
U 1 1 5E56E0CF
P 10700 3100
F 0 "C29" H 10650 2900 50  0000 L CNN
F 1 "UMK212B7105KG-T" H 10400 2800 50  0000 L CNN
F 2 "885012207078:CAPC2012X135N" H 10738 2950 50  0001 C CNN
F 3 "~" H 10700 3100 50  0001 C CNN
	1    10700 3100
	1    0    0    -1  
$EndComp
Wire Wire Line
	12150 3050 11750 3050
Wire Wire Line
	11750 3050 11750 2950
Wire Wire Line
	11750 2950 11450 2950
Wire Wire Line
	11050 2950 10700 2950
Wire Wire Line
	12150 3150 11750 3150
Wire Wire Line
	11750 3150 11750 3250
Wire Wire Line
	11750 3250 11450 3250
Wire Wire Line
	11050 3250 10700 3250
Wire Wire Line
	11450 3250 11050 3250
Connection ~ 11450 3250
Connection ~ 11050 3250
$Comp
L power:GND #PWR0127
U 1 1 5E580D77
P 10700 2750
F 0 "#PWR0127" H 10700 2500 50  0001 C CNN
F 1 "GND" H 10705 2577 50  0000 C CNN
F 2 "" H 10700 2750 50  0001 C CNN
F 3 "" H 10700 2750 50  0001 C CNN
	1    10700 2750
	-1   0    0    1   
$EndComp
$Comp
L power:GND #PWR0128
U 1 1 5E580F17
P 11050 2750
F 0 "#PWR0128" H 11050 2500 50  0001 C CNN
F 1 "GND" H 11055 2577 50  0000 C CNN
F 2 "" H 11050 2750 50  0001 C CNN
F 3 "" H 11050 2750 50  0001 C CNN
	1    11050 2750
	-1   0    0    1   
$EndComp
Wire Wire Line
	10700 2950 10700 2750
Connection ~ 10700 2950
Wire Wire Line
	11050 2950 11050 2750
Connection ~ 11050 2950
$Comp
L Device:C C32
U 1 1 5E58F603
P 12150 2000
F 0 "C32" H 11850 2300 50  0000 L CNN
F 1 "UMF212B7473KGHT" H 11550 2200 50  0000 L CNN
F 2 "UMF212B7473KGHT:CAPC2012X135N" H 12188 1850 50  0001 C CNN
F 3 "~" H 12150 2000 50  0001 C CNN
	1    12150 2000
	1    0    0    -1  
$EndComp
Wire Wire Line
	12150 2950 12150 2150
Wire Wire Line
	12550 2350 12550 1850
Wire Wire Line
	12550 1850 12150 1850
$Comp
L power:GND #PWR0129
U 1 1 5E59A681
P 12650 2250
F 0 "#PWR0129" H 12650 2000 50  0001 C CNN
F 1 "GND" H 12655 2077 50  0000 C CNN
F 2 "" H 12650 2250 50  0001 C CNN
F 3 "" H 12650 2250 50  0001 C CNN
	1    12650 2250
	-1   0    0    1   
$EndComp
Wire Wire Line
	12650 2250 12650 2350
$Comp
L power:GND #PWR0130
U 1 1 5E59CB5B
P 14200 3050
F 0 "#PWR0130" H 14200 2800 50  0001 C CNN
F 1 "GND" V 14205 2922 50  0000 R CNN
F 2 "" H 14200 3050 50  0001 C CNN
F 3 "" H 14200 3050 50  0001 C CNN
	1    14200 3050
	0    -1   -1   0   
$EndComp
$Comp
L Device:C C33
U 1 1 5E59FC41
P 14050 2900
F 0 "C33" H 14300 3050 50  0000 L CNN
F 1 "UMK212B7105KG-T" H 14250 2950 50  0000 L CNN
F 2 "885012207078:CAPC2012X135N" H 14088 2750 50  0001 C CNN
F 3 "~" H 14050 2900 50  0001 C CNN
	1    14050 2900
	1    0    0    -1  
$EndComp
Wire Wire Line
	13550 2950 13550 2750
Wire Wire Line
	13550 2750 14050 2750
Wire Wire Line
	13550 3050 14050 3050
Wire Wire Line
	14050 3050 14200 3050
Connection ~ 14050 3050
$Comp
L Device:CP C28
U 1 1 5E5AA2D8
P 10350 3100
F 0 "C28" H 10450 3050 50  0000 L CNN
F 1 "UBC1E221MNS1GS" H 10450 2950 50  0000 L CNN
F 2 "UBC1E221MNS1GS:CAPAE1030X1100N" H 10388 2950 50  0001 C CNN
F 3 "~" H 10350 3100 50  0001 C CNN
	1    10350 3100
	-1   0    0    1   
$EndComp
Wire Wire Line
	10350 3250 10700 3250
Connection ~ 10700 3250
$Comp
L power:GND #PWR0131
U 1 1 5E5B7AF6
P 10350 2750
F 0 "#PWR0131" H 10350 2500 50  0001 C CNN
F 1 "GND" H 10355 2577 50  0000 C CNN
F 2 "" H 10350 2750 50  0001 C CNN
F 3 "" H 10350 2750 50  0001 C CNN
	1    10350 2750
	-1   0    0    1   
$EndComp
Wire Wire Line
	10350 2950 10350 2750
Wire Wire Line
	10700 2950 10350 2950
Connection ~ 10350 2950
$Comp
L power:+36V #PWR0132
U 1 1 5E5D2231
P 10000 3250
F 0 "#PWR0132" H 10000 3100 50  0001 C CNN
F 1 "+36V" H 10015 3423 50  0000 C CNN
F 2 "" H 10000 3250 50  0001 C CNN
F 3 "" H 10000 3250 50  0001 C CNN
	1    10000 3250
	1    0    0    -1  
$EndComp
Wire Wire Line
	10000 3250 10350 3250
Connection ~ 10350 3250
Wire Wire Line
	12150 3250 12150 3150
Connection ~ 12150 3150
$Comp
L power:+36V #PWR0133
U 1 1 5E5F5B58
P 9350 4500
F 0 "#PWR0133" H 9350 4350 50  0001 C CNN
F 1 "+36V" H 9365 4673 50  0000 C CNN
F 2 "" H 9350 4500 50  0001 C CNN
F 3 "" H 9350 4500 50  0001 C CNN
	1    9350 4500
	0    -1   -1   0   
$EndComp
Wire Wire Line
	12150 3450 11900 3450
Wire Wire Line
	11900 3450 11900 4250
Wire Wire Line
	10300 4250 11900 4250
$Comp
L power:GND #PWR0134
U 1 1 5E6215CE
P 11300 4550
F 0 "#PWR0134" H 11300 4300 50  0001 C CNN
F 1 "GND" H 11305 4377 50  0000 C CNN
F 2 "" H 11300 4550 50  0001 C CNN
F 3 "" H 11300 4550 50  0001 C CNN
	1    11300 4550
	-1   0    0    1   
$EndComp
Wire Wire Line
	12000 3550 12150 3550
Wire Wire Line
	12150 3650 12150 4550
Wire Wire Line
	12150 4550 11300 4550
Wire Wire Line
	12750 4250 12750 6100
$Comp
L power:+36V #PWR0135
U 1 1 5E636DA0
P 12100 6400
F 0 "#PWR0135" H 12100 6250 50  0001 C CNN
F 1 "+36V" H 12115 6573 50  0000 C CNN
F 2 "" H 12100 6400 50  0001 C CNN
F 3 "" H 12100 6400 50  0001 C CNN
	1    12100 6400
	1    0    0    -1  
$EndComp
Wire Wire Line
	12650 4250 12650 6050
Wire Wire Line
	12650 6050 11350 6050
Connection ~ 11350 6050
Wire Wire Line
	11350 6050 11350 5950
Wire Wire Line
	12550 4250 12550 4700
$Comp
L power:GND #PWR0136
U 1 1 5E66C359
P 12300 4750
F 0 "#PWR0136" H 12300 4500 50  0001 C CNN
F 1 "GND" H 12305 4577 50  0000 C CNN
F 2 "" H 12300 4750 50  0001 C CNN
F 3 "" H 12300 4750 50  0001 C CNN
	1    12300 4750
	1    0    0    -1  
$EndComp
$Comp
L Connector:Screw_Terminal_01x03 J4
U 1 1 5E5BFC0B
P 10000 6650
F 0 "J4" V 10200 6750 50  0000 R CNN
F 1 "1985975" V 10100 6750 50  0000 R CNN
F 2 "1985975:SHDR3W100P0X500_1X3_1500X1120X1820P" H 10000 6650 50  0001 C CNN
F 3 "~" H 10000 6650 50  0001 C CNN
	1    10000 6650
	-1   0    0    1   
$EndComp
Wire Wire Line
	10300 6750 10200 6750
Wire Wire Line
	11350 6050 10400 6050
Wire Wire Line
	10400 6050 10400 6650
Wire Wire Line
	10400 6650 10200 6650
Wire Wire Line
	13350 6050 13150 6050
$Comp
L power:GND #PWR0138
U 1 1 5E6CBFFE
P 13900 5550
F 0 "#PWR0138" H 13900 5300 50  0001 C CNN
F 1 "GND" H 13905 5377 50  0000 C CNN
F 2 "" H 13900 5550 50  0001 C CNN
F 3 "" H 13900 5550 50  0001 C CNN
	1    13900 5550
	1    0    0    -1  
$EndComp
Wire Wire Line
	12800 7000 10750 7000
Wire Wire Line
	10750 7000 10750 6550
Wire Wire Line
	10750 6550 10200 6550
Wire Wire Line
	12950 4250 12950 6400
Wire Wire Line
	12950 6400 12800 6400
Connection ~ 12800 6400
Wire Wire Line
	13050 4250 13050 5850
Wire Wire Line
	12800 6050 12800 6400
Wire Wire Line
	13150 4250 13150 6050
Connection ~ 13150 6050
Wire Wire Line
	13150 6050 12800 6050
$Comp
L Device:R R12
U 1 1 5E6FCCD5
P 14950 3650
F 0 "R12" V 15050 3650 50  0000 C CNN
F 1 "RK73H1HTTCM1022F" V 15150 3650 50  0000 C CNN
F 2 "RK73H1HTTCM1022F:RESC0603X26N" V 14880 3650 50  0001 C CNN
F 3 "~" H 14950 3650 50  0001 C CNN
	1    14950 3650
	0    1    1    0   
$EndComp
$Comp
L power:+3.3V #PWR0139
U 1 1 5E70270A
P 15450 3650
F 0 "#PWR0139" H 15450 3500 50  0001 C CNN
F 1 "+3.3V" H 15465 3823 50  0000 C CNN
F 2 "" H 15450 3650 50  0001 C CNN
F 3 "" H 15450 3650 50  0001 C CNN
	1    15450 3650
	1    0    0    -1  
$EndComp
Wire Wire Line
	15100 3650 15300 3650
$Comp
L Device:R R11
U 1 1 5E71FC88
P 14950 3500
F 0 "R11" V 14750 3800 50  0000 C CNN
F 1 "RK73H1HTTCM1022F" V 14850 3950 50  0000 C CNN
F 2 "RK73H1HTTCM1022F:RESC0603X26N" V 14880 3500 50  0001 C CNN
F 3 "~" H 14950 3500 50  0001 C CNN
	1    14950 3500
	0    1    1    0   
$EndComp
Wire Wire Line
	14800 3550 14800 3500
Wire Wire Line
	15100 3500 15300 3500
Wire Wire Line
	15300 3500 15300 3650
Connection ~ 15300 3650
Wire Wire Line
	15300 3650 15450 3650
$Comp
L Connector:Conn_01x05_Male J5
U 1 1 5E72CEDB
P 13050 1050
F 0 "J5" V 13112 1294 50  0000 L CNN
F 1 "HallHeader" V 13203 1294 50  0000 L CNN
F 2 "Connector_PinHeader_2.54mm:PinHeader_1x05_P2.54mm_Vertical" H 13050 1050 50  0001 C CNN
F 3 "~" H 13050 1050 50  0001 C CNN
	1    13050 1050
	0    1    1    0   
$EndComp
Wire Wire Line
	12850 1400 12850 1250
$Comp
L power:GND #PWR0140
U 1 1 5E737E52
P 13250 1450
F 0 "#PWR0140" H 13250 1200 50  0001 C CNN
F 1 "GND" H 13255 1277 50  0000 C CNN
F 2 "" H 13250 1450 50  0001 C CNN
F 3 "" H 13250 1450 50  0001 C CNN
	1    13250 1450
	1    0    0    -1  
$EndComp
Wire Wire Line
	13250 1250 13250 1450
Wire Wire Line
	13150 1250 13150 2350
Wire Wire Line
	13050 1250 13050 2350
Wire Wire Line
	12950 1250 12950 2350
$Comp
L power:+5V #PWR0141
U 1 1 5E771E0A
P 12850 1400
F 0 "#PWR0141" H 12850 1250 50  0001 C CNN
F 1 "+5V" H 12865 1573 50  0000 C CNN
F 2 "" H 12850 1400 50  0001 C CNN
F 3 "" H 12850 1400 50  0001 C CNN
	1    12850 1400
	-1   0    0    1   
$EndComp
$Comp
L power:+3.3V #PWR0142
U 1 1 5E79061E
P 4150 6750
F 0 "#PWR0142" H 4150 6600 50  0001 C CNN
F 1 "+3.3V" H 4165 6923 50  0000 C CNN
F 2 "" H 4150 6750 50  0001 C CNN
F 3 "" H 4150 6750 50  0001 C CNN
	1    4150 6750
	-1   0    0    1   
$EndComp
Wire Wire Line
	4250 6750 4250 7000
Text GLabel 4250 7000 0    50   Input ~ 0
SPI1_SCK
Wire Wire Line
	13550 3350 13650 3350
Text GLabel 13650 3350 2    50   Input ~ 0
SPI1_SCK
Wire Wire Line
	4350 6750 4350 7100
Text GLabel 4350 7100 0    50   Input ~ 0
SPI1_MISO
Wire Wire Line
	13550 3650 14800 3650
Text GLabel 14650 3550 1    50   Input ~ 0
SPI1_MISO
Wire Wire Line
	13550 3550 14800 3550
Wire Wire Line
	3950 6750 3950 7700
Wire Wire Line
	4050 6750 4050 7700
Text GLabel 4450 7200 0    50   Input ~ 0
SPI1_MOSI
Wire Wire Line
	4450 7200 4450 6750
Text GLabel 13650 3450 2    50   Input ~ 0
SPI1_MOSI
Wire Wire Line
	13650 3450 13550 3450
Wire Wire Line
	3550 5850 3450 5850
Text GLabel 3450 5850 0    50   Input ~ 0
Motor0_PWM
Wire Wire Line
	13250 2350 13250 2200
Text GLabel 13250 2200 1    50   Input ~ 0
Motor0_PWM
Text GLabel 4950 6750 3    50   Input ~ 0
Motor0_Hall0
Text GLabel 13150 1850 0    50   Input ~ 0
Motor0_Hall0
Text GLabel 4750 3850 1    50   Input ~ 0
Motor0_Hall1
Text GLabel 13050 1950 0    50   Input ~ 0
Motor0_Hall1
Text GLabel 12950 1750 0    50   Input ~ 0
Motor0_Hall2
Text GLabel 4650 3850 1    50   Input ~ 0
Motor0_Hall2
Text GLabel 5650 5250 2    50   Input ~ 0
Motor0_SPI_SLAVE_SELECT
Text GLabel 13550 3250 2    50   Input ~ 0
Motor0_SPI_SLAVE_SELECT
Text GLabel 3550 5250 0    50   Input ~ 0
Motor0_Direction
Text GLabel 12850 2350 1    50   Input ~ 0
Motor0_Direction
Text GLabel 3550 5350 0    50   Input ~ 0
Motor0_Break
Text GLabel 12750 2350 1    50   Input ~ 0
Motor0_Break
NoConn ~ 12450 2350
$Comp
L Connector:Conn_01x03_Male J2
U 1 1 5E8A0203
P 5350 2950
F 0 "J2" V 5412 3094 50  0000 L CNN
F 1 "NanoUARTHeader" V 5503 3094 50  0000 L CNN
F 2 "Connector_PinHeader_2.54mm:PinHeader_1x03_P2.54mm_Vertical" H 5350 2950 50  0001 C CNN
F 3 "~" H 5350 2950 50  0001 C CNN
	1    5350 2950
	0    1    1    0   
$EndComp
Wire Wire Line
	5250 3850 5250 3150
Wire Wire Line
	5350 3850 5350 3150
$Comp
L power:GND #PWR0143
U 1 1 5E8AEF26
P 5450 3150
F 0 "#PWR0143" H 5450 2900 50  0001 C CNN
F 1 "GND" H 5455 2977 50  0000 C CNN
F 2 "" H 5450 3150 50  0001 C CNN
F 3 "" H 5450 3150 50  0001 C CNN
	1    5450 3150
	1    0    0    -1  
$EndComp
Text GLabel 13550 3150 2    50   Input ~ 0
Motor0_Enable
Text GLabel 4950 3850 1    50   Input ~ 0
Motor0_Enable
Text GLabel 14000 3650 3    50   Input ~ 0
Motor0_Fault
$Comp
L Connector:Conn_01x04_Male J1
U 1 1 5E8C221C
P 5150 2600
F 0 "J1" V 5212 2744 50  0000 L CNN
F 1 "GPSUARTHeader" V 5303 2744 50  0000 L CNN
F 2 "Connector_PinHeader_2.54mm:PinHeader_1x04_P2.54mm_Vertical" H 5150 2600 50  0001 C CNN
F 3 "~" H 5150 2600 50  0001 C CNN
	1    5150 2600
	0    1    1    0   
$EndComp
$Comp
L power:GND #PWR0144
U 1 1 5E8C2B24
P 5250 2800
F 0 "#PWR0144" H 5250 2550 50  0001 C CNN
F 1 "GND" H 5255 2627 50  0000 C CNN
F 2 "" H 5250 2800 50  0001 C CNN
F 3 "" H 5250 2800 50  0001 C CNN
	1    5250 2800
	1    0    0    -1  
$EndComp
Wire Wire Line
	5150 3850 5150 2800
Wire Wire Line
	5050 3850 5050 2800
$Comp
L power:+3.3V #PWR0145
U 1 1 5E8D11F4
P 4950 2800
F 0 "#PWR0145" H 4950 2650 50  0001 C CNN
F 1 "+3.3V" H 4965 2973 50  0000 C CNN
F 2 "" H 4950 2800 50  0001 C CNN
F 3 "" H 4950 2800 50  0001 C CNN
	1    4950 2800
	-1   0    0    1   
$EndComp
NoConn ~ 4050 3850
NoConn ~ 4150 3850
NoConn ~ 4350 3850
NoConn ~ 4450 3850
NoConn ~ 4550 3850
NoConn ~ 4850 3850
NoConn ~ 5650 4750
NoConn ~ 5650 5150
NoConn ~ 5650 5350
NoConn ~ 5650 5450
NoConn ~ 5650 5550
NoConn ~ 5650 5750
NoConn ~ 5650 5850
NoConn ~ 5650 5950
NoConn ~ 5650 6050
NoConn ~ 5150 6750
NoConn ~ 5050 6750
NoConn ~ 4850 6750
NoConn ~ 4750 6750
NoConn ~ 4650 6750
NoConn ~ 4550 6750
NoConn ~ 3850 6750
NoConn ~ 3550 6050
NoConn ~ 3550 5950
NoConn ~ 3550 5550
NoConn ~ 3550 5450
NoConn ~ 3550 4850
NoConn ~ 3550 4750
NoConn ~ 3550 4650
$Comp
L STM32F072RBT6:STM32F072RBT6 IC1
U 1 1 5E493824
P 3550 4550
F 0 "IC1" H 4650 3550 50  0000 L CNN
F 1 "STM32F072RBT6" H 4350 3700 50  0000 L CNN
F 2 "STM32F072RBT6:QFP50P1200X1200X160-64N" H 5500 5050 50  0001 L CNN
F 3 "https://componentsearchengine.com/Datasheets/1/STM32F072RBT6.pdf" H 5500 4950 50  0001 L CNN
F 4 "32-Bit MCU 128K Flash USB2.0 CAN LQFP64 STMicroelectronics STM32F072RBT6, 32bit ARM Cortex M0 Microcontroller, 48MHz, 64 kB, 128 kB Flash, 64-Pin LQFP" H 5500 4850 50  0001 L CNN "Description"
F 5 "1.6" H 5500 4750 50  0001 L CNN "Height"
F 6 "511-STM32F072RBT6" H 5500 4650 50  0001 L CNN "Mouser Part Number"
F 7 "https://www.mouser.com/Search/Refine.aspx?Keyword=511-STM32F072RBT6" H 5500 4550 50  0001 L CNN "Mouser Price/Stock"
F 8 "STMicroelectronics" H 5500 4450 50  0001 L CNN "Manufacturer_Name"
F 9 "STM32F072RBT6" H 5500 4350 50  0001 L CNN "Manufacturer_Part_Number"
	1    3550 4550
	1    0    0    -1  
$EndComp
$Comp
L power:+36V #PWR0146
U 1 1 5E602D0B
P 6850 11300
F 0 "#PWR0146" H 6850 11150 50  0001 C CNN
F 1 "+36V" H 6865 11473 50  0000 C CNN
F 2 "" H 6850 11300 50  0001 C CNN
F 3 "" H 6850 11300 50  0001 C CNN
	1    6850 11300
	1    0    0    -1  
$EndComp
Wire Wire Line
	6850 11300 7250 11300
$Comp
L Device:R R3
U 1 1 5E60A108
P 6550 11400
F 0 "R3" V 6343 11400 50  0000 C CNN
F 1 "CR0805-FX-1023ELF" V 6434 11400 50  0000 C CNN
F 2 "CR0805-FX-1023ELF:RESC2012X60N" V 6480 11400 50  0001 C CNN
F 3 "~" H 6550 11400 50  0001 C CNN
	1    6550 11400
	0    1    1    0   
$EndComp
Wire Wire Line
	7250 11500 6000 11500
$Comp
L power:+36V #PWR0147
U 1 1 5E621CFA
P 5400 11500
F 0 "#PWR0147" H 5400 11350 50  0001 C CNN
F 1 "+36V" H 5415 11673 50  0000 C CNN
F 2 "" H 5400 11500 50  0001 C CNN
F 3 "" H 5400 11500 50  0001 C CNN
	1    5400 11500
	1    0    0    -1  
$EndComp
Wire Wire Line
	5700 11500 5400 11500
$Comp
L Device:C C3
U 1 1 5E62A69D
P 4900 11600
F 0 "C3" V 4648 11600 50  0000 C CNN
F 1 "C0805X104K1RAC3316" V 4739 11600 50  0000 C CNN
F 2 "C0805X104K1RAC3316:CAPC2012X100N" H 4938 11450 50  0001 C CNN
F 3 "~" H 4900 11600 50  0001 C CNN
	1    4900 11600
	0    1    1    0   
$EndComp
Wire Wire Line
	7250 11600 5050 11600
$Comp
L Device:R R1
U 1 1 5E633528
P 5600 11800
F 0 "R1" V 5393 11800 50  0000 C CNN
F 1 "CRCW25123R30FKEG" V 5484 11800 50  0000 C CNN
F 2 "CRCW25123R30FKEG:RESC6332X70N" V 5530 11800 50  0001 C CNN
F 3 "~" H 5600 11800 50  0001 C CNN
	1    5600 11800
	0    1    1    0   
$EndComp
Wire Wire Line
	4750 11600 4750 11800
Wire Wire Line
	4750 11800 5450 11800
Wire Wire Line
	5750 11800 5750 11700
Wire Wire Line
	5750 11700 7250 11700
Wire Wire Line
	5750 11800 7250 11800
Connection ~ 5750 11800
$Comp
L power:+36V #PWR0148
U 1 1 5E64D4BC
P 6900 11900
F 0 "#PWR0148" H 6900 11750 50  0001 C CNN
F 1 "+36V" V 6915 12028 50  0000 L CNN
F 2 "" H 6900 11900 50  0001 C CNN
F 3 "" H 6900 11900 50  0001 C CNN
	1    6900 11900
	1    0    0    -1  
$EndComp
Wire Wire Line
	7250 12000 7050 12000
Wire Wire Line
	6900 12000 6900 11900
Connection ~ 6900 11900
$Comp
L power:GND #PWR0149
U 1 1 5E66027E
P 6950 12200
F 0 "#PWR0149" H 6950 11950 50  0001 C CNN
F 1 "GND" H 6955 12027 50  0000 C CNN
F 2 "" H 6950 12200 50  0001 C CNN
F 3 "" H 6950 12200 50  0001 C CNN
	1    6950 12200
	0    1    1    0   
$EndComp
Wire Wire Line
	7250 12100 6950 12100
Wire Wire Line
	6950 12100 6950 12200
Connection ~ 6950 12200
Wire Wire Line
	7250 12300 6950 12300
Wire Wire Line
	6950 12300 6950 12200
$Comp
L power:GND #PWR0152
U 1 1 5E7539F6
P 9200 11300
F 0 "#PWR0152" H 9200 11050 50  0001 C CNN
F 1 "GND" H 9205 11127 50  0000 C CNN
F 2 "" H 9200 11300 50  0001 C CNN
F 3 "" H 9200 11300 50  0001 C CNN
	1    9200 11300
	-1   0    0    1   
$EndComp
Wire Wire Line
	9200 11300 8850 11300
$Comp
L Device:C C19
U 1 1 5E76FA3F
P 9650 11500
F 0 "C19" V 9902 11500 50  0000 C CNN
F 1 "C0805C333K1RECAUTO" V 9811 11500 50  0000 C CNN
F 2 "C0805C333K1RECAUTO:CAPC2012X110N" H 9688 11350 50  0001 C CNN
F 3 "~" H 9650 11500 50  0001 C CNN
	1    9650 11500
	0    -1   -1   0   
$EndComp
$Comp
L power:GND #PWR0153
U 1 1 5E77D994
P 9800 11500
F 0 "#PWR0153" H 9800 11250 50  0001 C CNN
F 1 "GND" H 9805 11327 50  0000 C CNN
F 2 "" H 9800 11500 50  0001 C CNN
F 3 "" H 9800 11500 50  0001 C CNN
	1    9800 11500
	1    0    0    -1  
$EndComp
$Comp
L Device:R R6
U 1 1 5E77F19B
P 9600 11700
F 0 "R6" H 9670 11746 50  0000 L CNN
F 1 "ERJ-3EKF2323V" H 9670 11655 50  0000 L CNN
F 2 "ERJ-3EKF2323V:RESC1608X55N" V 9530 11700 50  0001 C CNN
F 3 "~" H 9600 11700 50  0001 C CNN
	1    9600 11700
	0    1    1    0   
$EndComp
$Comp
L Device:C C14
U 1 1 5E77F563
P 10000 11700
F 0 "C14" H 10115 11746 50  0000 L CNN
F 1 "C0603C471K2RACAUTO" H 10115 11655 50  0000 L CNN
F 2 "C0603C222J5RACAUTO:CAPC1608X87N" H 10038 11550 50  0001 C CNN
F 3 "~" H 10000 11700 50  0001 C CNN
	1    10000 11700
	0    1    1    0   
$EndComp
Wire Wire Line
	9750 11700 9850 11700
$Comp
L power:GND #PWR0154
U 1 1 5E79B45F
P 10150 11700
F 0 "#PWR0154" H 10150 11450 50  0001 C CNN
F 1 "GND" H 10155 11527 50  0000 C CNN
F 2 "" H 10150 11700 50  0001 C CNN
F 3 "" H 10150 11700 50  0001 C CNN
	1    10150 11700
	0    -1   -1   0   
$EndComp
$Comp
L Device:C C13
U 1 1 5E82708B
P 10500 12200
F 0 "C13" H 10000 12400 50  0000 L CNN
F 1 "UMK212B7105KG-T" H 9800 12300 50  0000 L CNN
F 2 "885012207078:CAPC2012X135N" H 10538 12050 50  0001 C CNN
F 3 "~" H 10500 12200 50  0001 C CNN
	1    10500 12200
	0    1    1    0   
$EndComp
$Comp
L power:GND #PWR0157
U 1 1 5E83756F
P 10650 12200
F 0 "#PWR0157" H 10650 11950 50  0001 C CNN
F 1 "GND" H 10655 12027 50  0000 C CNN
F 2 "" H 10650 12200 50  0001 C CNN
F 3 "" H 10650 12200 50  0001 C CNN
	1    10650 12200
	0    -1   -1   0   
$EndComp
$Comp
L power:GND #PWR0158
U 1 1 5E849307
P 10250 12600
F 0 "#PWR0158" H 10250 12350 50  0001 C CNN
F 1 "GND" H 10255 12427 50  0000 C CNN
F 2 "" H 10250 12600 50  0001 C CNN
F 3 "" H 10250 12600 50  0001 C CNN
	1    10250 12600
	0    -1   -1   0   
$EndComp
$Comp
L Device:CP C12
U 1 1 5E85050E
P 6750 11900
F 0 "C12" H 6868 11946 50  0000 L CNN
F 1 "EDK476M063A9MAA" H 6868 11855 50  0000 L CNN
F 2 "EDK476M063A9MAA:CAPAE830X1050N" H 6788 11750 50  0001 C CNN
F 3 "~" H 6750 11900 50  0001 C CNN
	1    6750 11900
	0    1    1    0   
$EndComp
$Comp
L power:GND #PWR0159
U 1 1 5E85161D
P 6600 11900
F 0 "#PWR0159" H 6600 11650 50  0001 C CNN
F 1 "GND" H 6605 11727 50  0000 C CNN
F 2 "" H 6600 11900 50  0001 C CNN
F 3 "" H 6600 11900 50  0001 C CNN
	1    6600 11900
	0    1    1    0   
$EndComp
Wire Wire Line
	7850 5900 7850 5300
Wire Wire Line
	7850 5300 7450 5300
Wire Wire Line
	7450 5300 7450 5150
$Comp
L Device:C C2
U 1 1 5E471756
P 2250 5150
F 0 "C2" V 2500 5350 50  0000 C CNN
F 1 "C0805X104K1RAC3316" V 2400 5350 50  0000 C CNN
F 2 "C0805X104K1RAC3316:CAPC2012X100N" H 2288 5000 50  0001 C CNN
F 3 "~" H 2250 5150 50  0001 C CNN
	1    2250 5150
	0    1    1    0   
$EndComp
$Comp
L NVMFS5C612NLAFT1G:NVMFS5C612NLAFT1G Q2
U 1 1 5EA491C2
P 10100 3500
F 0 "Q2" V 10554 3628 50  0000 L CNN
F 1 "NVMFS5C612NLAFT1G" V 10645 3628 50  0000 L CNN
F 2 "NVMFS5C612NLAFT1G:NTMFS4C022N" H 10950 3600 50  0001 L CNN
F 3 "https://componentsearchengine.com/Datasheets/1/NVMFS5C612NLAFT1G.pdf" H 10950 3500 50  0001 L CNN
F 4 "MOSFET  Power, Single N-Channel 60 V, 1.36 m, 250 A" H 10950 3400 50  0001 L CNN "Description"
F 5 "1.1" H 10950 3300 50  0001 L CNN "Height"
F 6 "863-NVMFS5C612NLFT1G" H 10950 3200 50  0001 L CNN "Mouser Part Number"
F 7 "https://www.mouser.com/Search/Refine.aspx?Keyword=863-NVMFS5C612NLFT1G" H 10950 3100 50  0001 L CNN "Mouser Price/Stock"
F 8 "ON Semiconductor" H 10950 3000 50  0001 L CNN "Manufacturer_Name"
F 9 "NVMFS5C612NLAFT1G" H 10950 2900 50  0001 L CNN "Manufacturer_Part_Number"
	1    10100 3500
	0    1    1    0   
$EndComp
Wire Wire Line
	9800 3350 9800 3500
Wire Wire Line
	9800 3350 12150 3350
Wire Wire Line
	9350 4500 9500 4500
Wire Wire Line
	9800 4500 9900 4500
Connection ~ 9800 4500
Wire Wire Line
	9900 4500 10000 4500
Connection ~ 9900 4500
Wire Wire Line
	10000 4500 10100 4500
Connection ~ 10000 4500
Wire Wire Line
	9700 3500 9500 3500
Wire Wire Line
	9500 3500 9500 4500
Connection ~ 9500 4500
Wire Wire Line
	9500 4500 9800 4500
Wire Wire Line
	10100 3500 10300 3500
Wire Wire Line
	10300 3500 10300 4250
Connection ~ 10300 4250
Connection ~ 10100 3500
Wire Wire Line
	9900 3500 10000 3500
Connection ~ 10000 3500
Wire Wire Line
	10000 3500 10100 3500
$Comp
L NVMFS5C612NLAFT1G:NVMFS5C612NLAFT1G Q3
U 1 1 5EB27F72
P 11300 4700
F 0 "Q3" V 11754 4828 50  0000 L CNN
F 1 "NVMFS5C612NLAFT1G" V 11845 4828 50  0000 L CNN
F 2 "NVMFS5C612NLAFT1G:NTMFS4C022N" H 12150 4800 50  0001 L CNN
F 3 "https://componentsearchengine.com/Datasheets/1/NVMFS5C612NLAFT1G.pdf" H 12150 4700 50  0001 L CNN
F 4 "MOSFET  Power, Single N-Channel 60 V, 1.36 m, 250 A" H 12150 4600 50  0001 L CNN "Description"
F 5 "1.1" H 12150 4500 50  0001 L CNN "Height"
F 6 "863-NVMFS5C612NLFT1G" H 12150 4400 50  0001 L CNN "Mouser Part Number"
F 7 "https://www.mouser.com/Search/Refine.aspx?Keyword=863-NVMFS5C612NLFT1G" H 12150 4300 50  0001 L CNN "Mouser Price/Stock"
F 8 "ON Semiconductor" H 12150 4200 50  0001 L CNN "Manufacturer_Name"
F 9 "NVMFS5C612NLAFT1G" H 12150 4100 50  0001 L CNN "Manufacturer_Part_Number"
	1    11300 4700
	0    1    1    0   
$EndComp
Wire Wire Line
	11100 4700 11200 4700
Wire Wire Line
	11200 4700 11300 4700
Connection ~ 11200 4700
Wire Wire Line
	11300 4700 11300 4550
Connection ~ 11300 4700
Connection ~ 11300 4550
Wire Wire Line
	11000 4700 11000 4650
Wire Wire Line
	11000 4650 12000 4650
Wire Wire Line
	12000 4650 12000 3550
Wire Wire Line
	10300 4250 10300 4700
Wire Wire Line
	10900 4700 10550 4700
Connection ~ 10300 4700
Wire Wire Line
	10300 4700 10300 6750
Wire Wire Line
	11000 5700 10550 5700
Wire Wire Line
	10550 5700 10550 4700
Connection ~ 10550 4700
Wire Wire Line
	10550 4700 10300 4700
Wire Wire Line
	11100 5700 11000 5700
Connection ~ 11000 5700
Wire Wire Line
	11200 5700 11100 5700
Connection ~ 11100 5700
Wire Wire Line
	11300 5700 11200 5700
Connection ~ 11200 5700
$Comp
L NVMFS5C612NLAFT1G:NVMFS5C612NLAFT1G Q5
U 1 1 5EBD9937
P 12050 4750
F 0 "Q5" V 12504 4878 50  0000 L CNN
F 1 "NVMFS5C612NLAFT1G" V 12595 4878 50  0000 L CNN
F 2 "NVMFS5C612NLAFT1G:NTMFS4C022N" H 12900 4850 50  0001 L CNN
F 3 "https://componentsearchengine.com/Datasheets/1/NVMFS5C612NLAFT1G.pdf" H 12900 4750 50  0001 L CNN
F 4 "MOSFET  Power, Single N-Channel 60 V, 1.36 m, 250 A" H 12900 4650 50  0001 L CNN "Description"
F 5 "1.1" H 12900 4550 50  0001 L CNN "Height"
F 6 "863-NVMFS5C612NLFT1G" H 12900 4450 50  0001 L CNN "Mouser Part Number"
F 7 "https://www.mouser.com/Search/Refine.aspx?Keyword=863-NVMFS5C612NLFT1G" H 12900 4350 50  0001 L CNN "Mouser Price/Stock"
F 8 "ON Semiconductor" H 12900 4250 50  0001 L CNN "Manufacturer_Name"
F 9 "NVMFS5C612NLAFT1G" H 12900 4150 50  0001 L CNN "Manufacturer_Part_Number"
	1    12050 4750
	0    1    1    0   
$EndComp
Wire Wire Line
	12450 4750 12300 4750
Wire Wire Line
	12450 4750 12450 4250
Wire Wire Line
	12050 4750 11950 4750
Connection ~ 12050 4750
Wire Wire Line
	11950 4750 11850 4750
Connection ~ 11950 4750
Connection ~ 12300 4750
Wire Wire Line
	12050 4750 12300 4750
Wire Wire Line
	12550 4700 11750 4700
Wire Wire Line
	11750 4700 11750 4750
Wire Wire Line
	11650 4750 11500 4750
Wire Wire Line
	11500 4750 11500 5750
Wire Wire Line
	11500 5750 11750 5750
Wire Wire Line
	11750 5750 11850 5750
Connection ~ 11750 5750
Wire Wire Line
	11850 5750 11950 5750
Connection ~ 11850 5750
Wire Wire Line
	11850 5750 11850 5950
Wire Wire Line
	11850 5950 11350 5950
Wire Wire Line
	11950 5750 12050 5750
Connection ~ 11950 5750
$Comp
L NVMFS5C612NLAFT1G:NVMFS5C612NLAFT1G Q4
U 1 1 5ED49FE8
P 11550 7550
F 0 "Q4" V 12096 7022 50  0000 R CNN
F 1 "NVMFS5C612NLAFT1G" V 12005 7022 50  0000 R CNN
F 2 "NVMFS5C612NLAFT1G:NTMFS4C022N" H 12400 7650 50  0001 L CNN
F 3 "https://componentsearchengine.com/Datasheets/1/NVMFS5C612NLAFT1G.pdf" H 12400 7550 50  0001 L CNN
F 4 "MOSFET  Power, Single N-Channel 60 V, 1.36 m, 250 A" H 12400 7450 50  0001 L CNN "Description"
F 5 "1.1" H 12400 7350 50  0001 L CNN "Height"
F 6 "863-NVMFS5C612NLFT1G" H 12400 7250 50  0001 L CNN "Mouser Part Number"
F 7 "https://www.mouser.com/Search/Refine.aspx?Keyword=863-NVMFS5C612NLFT1G" H 12400 7150 50  0001 L CNN "Mouser Price/Stock"
F 8 "ON Semiconductor" H 12400 7050 50  0001 L CNN "Manufacturer_Name"
F 9 "NVMFS5C612NLAFT1G" H 12400 6950 50  0001 L CNN "Manufacturer_Part_Number"
	1    11550 7550
	0    -1   -1   0   
$EndComp
Wire Wire Line
	11550 7550 11350 7550
Connection ~ 11550 7550
Wire Wire Line
	11550 7550 11650 7550
Connection ~ 11650 7550
Wire Wire Line
	11650 7550 11750 7550
Wire Wire Line
	11950 7550 12100 7550
Wire Wire Line
	12100 7550 12100 6550
Wire Wire Line
	11850 6550 11750 6550
Connection ~ 11850 6550
Wire Wire Line
	12750 6100 12500 6100
Wire Wire Line
	12500 6100 12500 7700
Wire Wire Line
	12500 7700 11850 7700
Wire Wire Line
	11850 7700 11850 7550
Wire Wire Line
	12100 6550 12100 6400
Connection ~ 12100 6550
Wire Wire Line
	12100 6550 11850 6550
Wire Wire Line
	11750 6550 11650 6550
Connection ~ 11750 6550
Wire Wire Line
	11650 6550 11550 6550
Connection ~ 11650 6550
Wire Wire Line
	11350 6050 11350 7550
$Comp
L NVMFS5C612NLAFT1G:NVMFS5C612NLAFT1G Q6
U 1 1 5EEB48AC
P 13800 7300
F 0 "Q6" V 14346 6772 50  0000 R CNN
F 1 "NVMFS5C612NLAFT1G" V 14255 6772 50  0000 R CNN
F 2 "NVMFS5C612NLAFT1G:NTMFS4C022N" H 14650 7400 50  0001 L CNN
F 3 "https://componentsearchengine.com/Datasheets/1/NVMFS5C612NLAFT1G.pdf" H 14650 7300 50  0001 L CNN
F 4 "MOSFET  Power, Single N-Channel 60 V, 1.36 m, 250 A" H 14650 7200 50  0001 L CNN "Description"
F 5 "1.1" H 14650 7100 50  0001 L CNN "Height"
F 6 "863-NVMFS5C612NLFT1G" H 14650 7000 50  0001 L CNN "Mouser Part Number"
F 7 "https://www.mouser.com/Search/Refine.aspx?Keyword=863-NVMFS5C612NLFT1G" H 14650 6900 50  0001 L CNN "Mouser Price/Stock"
F 8 "ON Semiconductor" H 14650 6800 50  0001 L CNN "Manufacturer_Name"
F 9 "NVMFS5C612NLAFT1G" H 14650 6700 50  0001 L CNN "Manufacturer_Part_Number"
	1    13800 7300
	0    -1   -1   0   
$EndComp
Wire Wire Line
	14000 7300 13900 7300
Wire Wire Line
	13900 7300 13800 7300
Connection ~ 13900 7300
Wire Wire Line
	13800 7300 12800 7300
Wire Wire Line
	12800 7300 12800 7000
Connection ~ 13800 7300
Connection ~ 12800 7000
$Comp
L power:+36V #PWR0137
U 1 1 5EEF6989
P 14350 6200
F 0 "#PWR0137" H 14350 6050 50  0001 C CNN
F 1 "+36V" H 14365 6373 50  0000 C CNN
F 2 "" H 14350 6200 50  0001 C CNN
F 3 "" H 14350 6200 50  0001 C CNN
	1    14350 6200
	1    0    0    -1  
$EndComp
Wire Wire Line
	14200 7300 14350 7300
Wire Wire Line
	14350 7300 14350 6300
Wire Wire Line
	14350 6300 14100 6300
Wire Wire Line
	14100 6300 14000 6300
Connection ~ 14100 6300
Wire Wire Line
	14000 6300 13900 6300
Connection ~ 14000 6300
Wire Wire Line
	13900 6300 13800 6300
Connection ~ 13900 6300
Wire Wire Line
	14350 6300 14350 6200
Connection ~ 14350 6300
Wire Wire Line
	12850 7500 14100 7500
Wire Wire Line
	14100 7500 14100 7300
Wire Wire Line
	12850 4250 12850 7500
Wire Wire Line
	12800 6400 12800 7000
$Comp
L NVMFS5C612NLAFT1G:NVMFS5C612NLAFT1G Q7
U 1 1 5EFAF940
P 14350 5750
F 0 "Q7" V 14896 5222 50  0000 R CNN
F 1 "NVMFS5C612NLAFT1G" V 14805 5222 50  0000 R CNN
F 2 "NVMFS5C612NLAFT1G:NTMFS4C022N" H 15200 5850 50  0001 L CNN
F 3 "https://componentsearchengine.com/Datasheets/1/NVMFS5C612NLAFT1G.pdf" H 15200 5750 50  0001 L CNN
F 4 "MOSFET  Power, Single N-Channel 60 V, 1.36 m, 250 A" H 15200 5650 50  0001 L CNN "Description"
F 5 "1.1" H 15200 5550 50  0001 L CNN "Height"
F 6 "863-NVMFS5C612NLFT1G" H 15200 5450 50  0001 L CNN "Mouser Part Number"
F 7 "https://www.mouser.com/Search/Refine.aspx?Keyword=863-NVMFS5C612NLFT1G" H 15200 5350 50  0001 L CNN "Mouser Price/Stock"
F 8 "ON Semiconductor" H 15200 5250 50  0001 L CNN "Manufacturer_Name"
F 9 "NVMFS5C612NLAFT1G" H 15200 5150 50  0001 L CNN "Manufacturer_Part_Number"
	1    14350 5750
	0    -1   -1   0   
$EndComp
Wire Wire Line
	14650 5850 14650 5750
Wire Wire Line
	13900 5550 14150 5550
Wire Wire Line
	14150 5550 14150 5750
Wire Wire Line
	14150 5750 14350 5750
Wire Wire Line
	14450 5750 14550 5750
Wire Wire Line
	14450 5750 14350 5750
Connection ~ 14450 5750
Connection ~ 14350 5750
Wire Wire Line
	14750 5750 15000 5750
Wire Wire Line
	15000 5750 15000 4750
Wire Wire Line
	15000 4750 14650 4750
Wire Wire Line
	14650 4750 14550 4750
Connection ~ 14650 4750
Wire Wire Line
	14550 4750 14450 4750
Connection ~ 14550 4750
Wire Wire Line
	14450 4750 14350 4750
Connection ~ 14450 4750
Wire Wire Line
	14350 4750 13350 4750
Connection ~ 14350 4750
Wire Wire Line
	13350 4750 13350 6050
Wire Wire Line
	13050 5850 14650 5850
$Comp
L Connector:Conn_01x02_Male J6
U 1 1 5F0EDED8
P 9000 1100
F 0 "J6" V 9062 1144 50  0000 L CNN
F 1 "BatteryPWRIn" V 9153 1144 50  0000 L CNN
F 2 "Connector_Wire:SolderWirePad_1x02_P7.62mm_Drill2mm" H 9000 1100 50  0001 C CNN
F 3 "~" H 9000 1100 50  0001 C CNN
	1    9000 1100
	0    1    1    0   
$EndComp
$Comp
L power:+36V #PWR0160
U 1 1 5F0F3AEC
P 8900 1300
F 0 "#PWR0160" H 8900 1150 50  0001 C CNN
F 1 "+36V" H 8915 1473 50  0000 C CNN
F 2 "" H 8900 1300 50  0001 C CNN
F 3 "" H 8900 1300 50  0001 C CNN
	1    8900 1300
	-1   0    0    1   
$EndComp
$Comp
L power:GND #PWR0161
U 1 1 5F0F4039
P 9000 1300
F 0 "#PWR0161" H 9000 1050 50  0001 C CNN
F 1 "GND" H 9005 1127 50  0000 C CNN
F 2 "" H 9000 1300 50  0001 C CNN
F 3 "" H 9000 1300 50  0001 C CNN
	1    9000 1300
	1    0    0    -1  
$EndComp
$Comp
L SiC462ED-T1-GE3:SiC462ED-T1-GE3 IC3
U 1 1 5F1289C3
P 7250 11300
F 0 "IC3" H 8050 11565 50  0000 C CNN
F 1 "SiC462ED-T1-GE3" H 8050 11474 50  0000 C CNN
F 2 "SiC462ED-T1-GE3:SiC462EDT1GE3" H 8700 11400 50  0001 L CNN
F 3 "https://componentsearchengine.com/Datasheets/1/SIC462ED-T1-GE3.pdf" H 8700 11300 50  0001 L CNN
F 4 "VISHAY - SIC462ED-T1-GE3 - DC-DC Switching Buck Regulator, Adjustable, 4.5V to 60V in, 800 mV-48V/6A out, PowerPAK MLP55-27" H 8700 11200 50  0001 L CNN "Description"
F 5 "0.8" H 8700 11100 50  0001 L CNN "Height"
F 6 "78-SIC462ED-T1-GE3" H 8700 11000 50  0001 L CNN "Mouser Part Number"
F 7 "https://www.mouser.com/Search/Refine.aspx?Keyword=78-SIC462ED-T1-GE3" H 8700 10900 50  0001 L CNN "Mouser Price/Stock"
F 8 "Vishay" H 8700 10800 50  0001 L CNN "Manufacturer_Name"
F 9 "SiC462ED-T1-GE3" H 8700 10700 50  0001 L CNN "Manufacturer_Part_Number"
	1    7250 11300
	1    0    0    -1  
$EndComp
Wire Wire Line
	7250 11400 6700 11400
Wire Wire Line
	6400 11400 6400 10850
Wire Wire Line
	6400 10850 9150 10850
Wire Wire Line
	9150 10850 9150 11400
Wire Wire Line
	9150 11400 8850 11400
Wire Wire Line
	8850 12200 9150 12200
Wire Wire Line
	9150 11400 9150 12200
Connection ~ 9150 11400
Connection ~ 9150 12200
Wire Wire Line
	9150 12200 10350 12200
Wire Wire Line
	8850 12300 10250 12300
$Comp
L Device:R R4
U 1 1 5E80269B
P 9700 12100
F 0 "R4" H 9550 12250 50  0000 L CNN
F 1 "RT0603CRE0760K4L" H 9350 12350 50  0000 L CNN
F 2 "RT0603CRE0760K4L:RESC1608X55N" V 9630 12100 50  0001 C CNN
F 3 "~" H 9700 12100 50  0001 C CNN
	1    9700 12100
	0    1    1    0   
$EndComp
$Comp
L Device:R R5
U 1 1 5E7D4A10
P 9450 12000
F 0 "R5" H 9520 12046 50  0000 L CNN
F 1 "RC0603FR-1052K3L" H 9520 11955 50  0000 L CNN
F 2 "RC0603FR-1052K3L:RESC1608X55N" V 9380 12000 50  0001 C CNN
F 3 "~" H 9450 12000 50  0001 C CNN
	1    9450 12000
	0    1    1    0   
$EndComp
$Comp
L power:GND #PWR0156
U 1 1 5E7C067C
P 10100 11900
F 0 "#PWR0156" H 10100 11650 50  0001 C CNN
F 1 "GND" H 10105 11727 50  0000 C CNN
F 2 "" H 10100 11900 50  0001 C CNN
F 3 "" H 10100 11900 50  0001 C CNN
	1    10100 11900
	0    -1   -1   0   
$EndComp
Wire Wire Line
	8850 11900 8950 11900
Wire Wire Line
	8850 12000 9300 12000
Wire Wire Line
	9600 12000 9600 11900
Connection ~ 9600 11900
Wire Wire Line
	9600 11900 9900 11900
Wire Wire Line
	9550 12100 8850 12100
Wire Wire Line
	9850 12100 9900 12100
Wire Wire Line
	9900 12100 9900 11900
Connection ~ 9900 11900
Wire Wire Line
	9900 11900 10100 11900
Wire Wire Line
	9450 11700 8850 11700
Wire Wire Line
	9500 11500 8850 11500
NoConn ~ 7250 12700
Wire Wire Line
	7250 12200 6950 12200
Wire Wire Line
	7250 11900 6900 11900
$Comp
L Device:Jumper JP3
U 1 1 5E86429B
P 1550 12200
F 0 "JP3" H 1550 12464 50  0000 C CNN
F 1 "5VSupplyJumper" H 1550 12373 50  0000 C CNN
F 2 "Connector_PinHeader_2.54mm:PinHeader_1x02_P2.54mm_Vertical_SMD_Pin1Right" H 1550 12200 50  0001 C CNN
F 3 "~" H 1550 12200 50  0001 C CNN
	1    1550 12200
	-1   0    0    1   
$EndComp
Wire Wire Line
	2100 11900 1900 11900
Connection ~ 2100 11900
$Comp
L Device:CP C27
U 1 1 5E84D036
P 2100 12050
F 0 "C27" H 2050 11750 50  0000 L CNN
F 1 "865080343008" H 1850 11650 50  0000 L CNN
F 2 "865080343008:CAPAE660X550N" H 2138 11900 50  0001 C CNN
F 3 "~" H 2100 12050 50  0001 C CNN
	1    2100 12050
	-1   0    0    1   
$EndComp
Wire Wire Line
	2400 11900 2100 11900
Connection ~ 2400 11900
$Comp
L Device:CP C26
U 1 1 5E84C803
P 2400 12050
F 0 "C26" H 2350 11600 50  0000 L CNN
F 1 "865080343008" H 2150 11500 50  0000 L CNN
F 2 "865080343008:CAPAE660X550N" H 2438 11900 50  0001 C CNN
F 3 "~" H 2400 12050 50  0001 C CNN
	1    2400 12050
	-1   0    0    1   
$EndComp
Wire Wire Line
	2700 11900 2400 11900
Wire Wire Line
	2400 12200 2100 12200
Wire Wire Line
	2400 13100 2400 12200
Wire Wire Line
	3000 13100 2400 13100
Wire Wire Line
	3000 13900 3000 13100
Wire Wire Line
	3000 14200 2450 14200
Connection ~ 3000 14200
$Comp
L Device:R R8
U 1 1 5E7AD79C
P 3000 14050
F 0 "R8" H 2950 14350 50  0000 L CNN
F 1 "RC0603FR-1052K3L" H 2600 14250 50  0000 L CNN
F 2 "RC0603FR-1052K3L:RESC1608X55N" V 2930 14050 50  0001 C CNN
F 3 "~" H 3000 14050 50  0001 C CNN
	1    3000 14050
	-1   0    0    1   
$EndComp
$Comp
L power:GND #PWR0155
U 1 1 5E7AD275
P 2450 13900
F 0 "#PWR0155" H 2450 13650 50  0001 C CNN
F 1 "GND" H 2455 13727 50  0000 C CNN
F 2 "" H 2450 13900 50  0001 C CNN
F 3 "" H 2450 13900 50  0001 C CNN
	1    2450 13900
	-1   0    0    1   
$EndComp
$Comp
L Device:R R9
U 1 1 5E7AC99A
P 2450 14050
F 0 "R9" H 2520 14096 50  0000 L CNN
F 1 "CRCW080510K0FKEAC" H 2520 14005 50  0000 L CNN
F 2 "CRCW080510K0FKEAC:RESC2012X60N" V 2380 14050 50  0001 C CNN
F 3 "~" H 2450 14050 50  0001 C CNN
	1    2450 14050
	-1   0    0    1   
$EndComp
Wire Wire Line
	4850 14200 3000 14200
Wire Wire Line
	4850 13500 4850 14200
Connection ~ 2700 11900
Wire Wire Line
	3850 11900 2700 11900
Wire Wire Line
	4250 11900 4150 11900
$Comp
L Device:C C18
U 1 1 5E7382A9
P 4000 11900
F 0 "C18" V 3850 11900 50  0000 C CNN
F 1 "12101C475K4T2A" V 3750 11900 50  0000 C CNN
F 2 "12101C475K4T2A:CAPC3225X279N" H 4038 11750 50  0001 C CNN
F 3 "~" H 4000 11900 50  0001 C CNN
	1    4000 11900
	0    1    1    0   
$EndComp
Wire Wire Line
	4250 12800 4250 11900
$Comp
L power:GND #PWR0151
U 1 1 5E704EFF
P 1900 11900
F 0 "#PWR0151" H 1900 11650 50  0001 C CNN
F 1 "GND" H 1905 11727 50  0000 C CNN
F 2 "" H 1900 11900 50  0001 C CNN
F 3 "" H 1900 11900 50  0001 C CNN
	1    1900 11900
	-1   0    0    1   
$EndComp
Connection ~ 2400 12200
Wire Wire Line
	2700 12200 2400 12200
Connection ~ 2700 12200
$Comp
L Device:C C25
U 1 1 5E6EA67F
P 2700 12050
F 0 "C25" H 2650 11750 50  0000 L CNN
F 1 "C0805X104K1RAC3316" H 1900 11650 50  0000 L CNN
F 2 "C0805X104K1RAC3316:CAPC2012X100N" H 2738 11900 50  0001 C CNN
F 3 "~" H 2700 12050 50  0001 C CNN
	1    2700 12050
	-1   0    0    1   
$EndComp
$Comp
L power:+5V #PWR0150
U 1 1 5E6E30F6
P 1100 12200
F 0 "#PWR0150" H 1100 12050 50  0001 C CNN
F 1 "+5V" H 1115 12373 50  0000 C CNN
F 2 "" H 1100 12200 50  0001 C CNN
F 3 "" H 1100 12200 50  0001 C CNN
	1    1100 12200
	-1   0    0    1   
$EndComp
Connection ~ 2950 12200
Wire Wire Line
	2950 12200 2700 12200
Wire Wire Line
	3400 12200 2950 12200
Connection ~ 3350 12500
Wire Wire Line
	3350 12500 2950 12500
$Comp
L Device:C C22
U 1 1 5E6BF2F4
P 2950 12350
F 0 "C22" H 3065 12396 50  0000 L CNN
F 1 "06035C182KAT2A" H 3065 12305 50  0000 L CNN
F 2 "06035C182KAT2A:CAPC1608X90N" H 2988 12200 50  0001 C CNN
F 3 "~" H 2950 12350 50  0001 C CNN
	1    2950 12350
	-1   0    0    1   
$EndComp
Wire Wire Line
	3350 13850 3350 12500
Wire Wire Line
	4200 13850 3350 13850
Wire Wire Line
	4650 13850 4500 13850
$Comp
L Device:C C17
U 1 1 5E6A71B2
P 4350 13850
F 0 "C17" V 4098 13850 50  0000 C CNN
F 1 "C0603C222J5RACAUTO" V 4189 13850 50  0000 C CNN
F 2 "C0603C222J5RACAUTO:CAPC1608X87N" H 4388 13700 50  0001 C CNN
F 3 "~" H 4350 13850 50  0001 C CNN
	1    4350 13850
	0    -1   -1   0   
$EndComp
Wire Wire Line
	4200 12500 3650 12500
Connection ~ 4200 12500
Wire Wire Line
	4300 12500 4200 12500
$Comp
L Device:R R7
U 1 1 5E69C140
P 3500 12500
F 0 "R7" V 3293 12500 50  0000 C CNN
F 1 "CR0805-FX-8661ELF" V 3384 12500 50  0000 C CNN
F 2 "CR0805-FX-8661ELF:RESC2012X60N" V 3430 12500 50  0001 C CNN
F 3 "~" H 3500 12500 50  0001 C CNN
	1    3500 12500
	0    -1   -1   0   
$EndComp
Wire Wire Line
	4200 12200 3900 12200
Wire Wire Line
	4200 12500 4200 12200
$Comp
L pspice:INDUCTOR L1
U 1 1 5E691594
P 3650 12200
F 0 "L1" H 3650 12415 50  0000 C CNN
F 1 "IHLP6767GZER4R7M11" H 3650 12324 50  0000 C CNN
F 2 "IHLP6767GZER4R7M11:INDPM172172X700N" H 3650 12200 50  0001 C CNN
F 3 "~" H 3650 12200 50  0001 C CNN
	1    3650 12200
	-1   0    0    1   
$EndComp
Connection ~ 4300 12500
Wire Wire Line
	4300 12600 4300 12500
Wire Wire Line
	4300 12400 4300 12500
Wire Wire Line
	4250 12800 7250 12800
Wire Wire Line
	4300 12600 7100 12600
Wire Wire Line
	4300 12500 7250 12500
Wire Wire Line
	4300 12400 7250 12400
Wire Wire Line
	8850 11600 9050 11600
Wire Wire Line
	9050 11600 9050 13300
Wire Wire Line
	9050 13300 4650 13300
Wire Wire Line
	4650 13300 4650 13850
Wire Wire Line
	4850 13500 9000 13500
Wire Wire Line
	9000 13500 9000 11800
Wire Wire Line
	9000 11800 8850 11800
Wire Wire Line
	7050 12000 7050 12950
Wire Wire Line
	7050 12950 8950 12950
Wire Wire Line
	8950 12950 8950 12500
Wire Wire Line
	8950 12500 8850 12500
Connection ~ 7050 12000
Wire Wire Line
	7050 12000 6900 12000
Wire Wire Line
	8850 12400 8950 12400
Wire Wire Line
	8950 12400 8950 11900
Connection ~ 8950 11900
Wire Wire Line
	8950 11900 9600 11900
Wire Wire Line
	8850 12800 8850 13050
Wire Wire Line
	8850 13050 7100 13050
Wire Wire Line
	7100 13050 7100 12600
Connection ~ 7100 12600
Wire Wire Line
	7100 12600 7250 12600
$Comp
L power:GND #PWR01
U 1 1 5F6DF9C2
P 8850 12600
F 0 "#PWR01" H 8850 12350 50  0001 C CNN
F 1 "GND" V 8855 12472 50  0000 R CNN
F 2 "" H 8850 12600 50  0001 C CNN
F 3 "" H 8850 12600 50  0001 C CNN
	1    8850 12600
	0    -1   -1   0   
$EndComp
$Comp
L power:GND #PWR02
U 1 1 5F6DFEA2
P 8850 12700
F 0 "#PWR02" H 8850 12450 50  0001 C CNN
F 1 "GND" V 8855 12572 50  0000 R CNN
F 2 "" H 8850 12700 50  0001 C CNN
F 3 "" H 8850 12700 50  0001 C CNN
	1    8850 12700
	0    -1   -1   0   
$EndComp
$Comp
L Connector:Conn_01x02_Male J7
U 1 1 5E6AF3EF
P 600 12100
F 0 "J7" V 662 12144 50  0000 L CNN
F 1 "5VOut" V 753 12144 50  0000 L CNN
F 2 "Connector_Wire:SolderWirePad_1x02_P7.62mm_Drill2mm" H 600 12100 50  0001 C CNN
F 3 "~" H 600 12100 50  0001 C CNN
	1    600  12100
	1    0    0    -1  
$EndComp
Wire Wire Line
	1100 12200 800  12200
$Comp
L power:GND #PWR0162
U 1 1 5E71ADF5
P 800 12100
F 0 "#PWR0162" H 800 11850 50  0001 C CNN
F 1 "GND" V 805 11972 50  0000 R CNN
F 2 "" H 800 12100 50  0001 C CNN
F 3 "" H 800 12100 50  0001 C CNN
	1    800  12100
	0    -1   -1   0   
$EndComp
Wire Wire Line
	1850 12200 2100 12200
Connection ~ 2100 12200
Wire Wire Line
	1250 12200 1100 12200
Connection ~ 1100 12200
$Comp
L Device:R R2
U 1 1 5E619DCE
P 5850 11500
F 0 "R2" V 5643 11500 50  0000 C CNN
F 1 "CR0805-FX-5603ELF" V 5734 11500 50  0000 C CNN
F 2 "CR0805-FX-5603ELF:RESC2012X60N" V 5780 11500 50  0001 C CNN
F 3 "~" H 5850 11500 50  0001 C CNN
	1    5850 11500
	0    1    1    0   
$EndComp
$Comp
L Device:R R14
U 1 1 5E8CE40D
P 10250 12450
F 0 "R14" H 10320 12496 50  0000 L CNN
F 1 "CRCW06032K00FKEAC" H 10320 12405 50  0000 L CNN
F 2 "CRCW06032K00FKEAC:RESC1608X55N" V 10180 12450 50  0001 C CNN
F 3 "~" H 10250 12450 50  0001 C CNN
	1    10250 12450
	1    0    0    -1  
$EndComp
$Comp
L PTS810SJM250SMTRLFS:PTS810SJM250SMTRLFS SW2
U 1 1 5E918650
P 4350 2050
F 0 "SW2" H 4750 2315 50  0000 C CNN
F 1 "PTS810SJM250SMTRLFS" H 4750 2224 50  0000 C CNN
F 2 "PTS810SJM250SMTRLFS:PTS810SJG250SMTRLFS" H 5000 2150 50  0001 L CNN
F 3 "https://componentsearchengine.com/Datasheets/1/PTS810SJM250SMTRLFS.pdf" H 5000 2050 50  0001 L CNN
F 4 "PTS810SJM250SMTRLFS (Tactile Switches)" H 5000 1950 50  0001 L CNN "Description"
F 5 "" H 5000 1850 50  0001 L CNN "Height"
F 6 "611-PTS810SJM250SMTR" H 5000 1750 50  0001 L CNN "Mouser Part Number"
F 7 "https://www.mouser.com/Search/Refine.aspx?Keyword=611-PTS810SJM250SMTR" H 5000 1650 50  0001 L CNN "Mouser Price/Stock"
F 8 "C & K COMPONENTS" H 5000 1550 50  0001 L CNN "Manufacturer_Name"
F 9 "PTS810SJM250SMTRLFS" H 5000 1450 50  0001 L CNN "Manufacturer_Part_Number"
	1    4350 2050
	1    0    0    -1  
$EndComp
Wire Wire Line
	4250 3850 4250 2150
Wire Wire Line
	4250 2150 4350 2150
Wire Wire Line
	5150 2150 4350 2150
Connection ~ 4350 2150
Wire Wire Line
	4350 2050 5150 2050
Connection ~ 5150 2050
$Comp
L PTS810SJM250SMTRLFS:PTS810SJM250SMTRLFS SW1
U 1 1 5EAE8401
P 1100 5750
F 0 "SW1" H 1500 6015 50  0000 C CNN
F 1 "PTS810SJM250SMTRLFS" H 1500 5924 50  0000 C CNN
F 2 "PTS810SJM250SMTRLFS:PTS810SJG250SMTRLFS" H 1750 5850 50  0001 L CNN
F 3 "https://componentsearchengine.com/Datasheets/1/PTS810SJM250SMTRLFS.pdf" H 1750 5750 50  0001 L CNN
F 4 "PTS810SJM250SMTRLFS (Tactile Switches)" H 1750 5650 50  0001 L CNN "Description"
F 5 "" H 1750 5550 50  0001 L CNN "Height"
F 6 "611-PTS810SJM250SMTR" H 1750 5450 50  0001 L CNN "Mouser Part Number"
F 7 "https://www.mouser.com/Search/Refine.aspx?Keyword=611-PTS810SJM250SMTR" H 1750 5350 50  0001 L CNN "Mouser Price/Stock"
F 8 "C & K COMPONENTS" H 1750 5250 50  0001 L CNN "Manufacturer_Name"
F 9 "PTS810SJM250SMTRLFS" H 1750 5150 50  0001 L CNN "Manufacturer_Part_Number"
	1    1100 5750
	1    0    0    -1  
$EndComp
Wire Wire Line
	1900 5750 2950 5750
Wire Wire Line
	1900 5750 1100 5750
Connection ~ 1900 5750
Wire Wire Line
	1900 5850 1100 5850
Connection ~ 1100 5850
$Comp
L Device:R R13
U 1 1 5EB56F03
P 6100 5650
F 0 "R13" V 6200 5650 50  0000 C CNN
F 1 "CRCW06032K00FKEAC" V 6300 5700 50  0000 C CNN
F 2 "CRCW06032K00FKEAC:RESC1608X55N" V 6030 5650 50  0001 C CNN
F 3 "~" H 6100 5650 50  0001 C CNN
	1    6100 5650
	0    1    1    0   
$EndComp
$Comp
L 150060VS75000:150060VS75000 LED1
U 1 1 5EB6A092
P 6900 5650
F 0 "LED1" H 7200 5385 50  0000 C CNN
F 1 "150060VS75000" H 7100 5500 50  0000 C CNN
F 2 "150060VS75000:LEDC1608X80N" H 7400 5800 50  0001 L BNN
F 3 "https://componentsearchengine.com/Datasheets/1/150060VS75000.pdf" H 7400 5700 50  0001 L BNN
F 4 "LED,Wurth Elektronik,150060VS75000 Wurth Elektronik 150060VS75000, WL-SMCW Series Green LED, 570 nm, 1608 (0603) Clear, Rectangle Lens SMD Package" H 7400 5600 50  0001 L BNN "Description"
F 5 "0.8" H 7400 5500 50  0001 L BNN "Height"
F 6 "710-150060VS75000" H 7400 5400 50  0001 L BNN "Mouser Part Number"
F 7 "https://www.mouser.com/Search/Refine.aspx?Keyword=710-150060VS75000" H 7400 5300 50  0001 L BNN "Mouser Price/Stock"
F 8 "Wurth Elektronik" H 7400 5200 50  0001 L BNN "Manufacturer_Name"
F 9 "150060VS75000" H 7400 5100 50  0001 L BNN "Manufacturer_Part_Number"
	1    6900 5650
	-1   0    0    1   
$EndComp
Wire Wire Line
	5650 5650 5950 5650
Wire Wire Line
	6250 5650 6300 5650
$Comp
L power:GND #PWR0120
U 1 1 5EC12BEF
P 6900 5650
F 0 "#PWR0120" H 6900 5400 50  0001 C CNN
F 1 "GND" H 6905 5477 50  0000 C CNN
F 2 "" H 6900 5650 50  0001 C CNN
F 3 "" H 6900 5650 50  0001 C CNN
	1    6900 5650
	1    0    0    -1  
$EndComp
$Comp
L FERD20H100SB-TR:FERD20H100SB-TR D1
U 1 1 5EC145E5
P 7800 6800
F 0 "D1" V 8296 6572 50  0000 R CNN
F 1 "FERD20H100SB-TR" V 8205 6572 50  0000 R CNN
F 2 "FERD20H100SB-TR:FERD20H100SBTR" H 8550 6900 50  0001 L CNN
F 3 "https://componentsearchengine.com/Datasheets/1/FERD20H100SB-TR.pdf" H 8550 6800 50  0001 L CNN
F 4 "STMicroelectronics FERD20H100SB-TR SMT Diode, 100V 20A, 2+Tab-Pin DPAK" H 8550 6700 50  0001 L CNN "Description"
F 5 "2.4" H 8550 6600 50  0001 L CNN "Height"
F 6 "511-FERD20H100SB-TR" H 8550 6500 50  0001 L CNN "Mouser Part Number"
F 7 "https://www.mouser.com/Search/Refine.aspx?Keyword=511-FERD20H100SB-TR" H 8550 6400 50  0001 L CNN "Mouser Price/Stock"
F 8 "STMicroelectronics" H 8550 6300 50  0001 L CNN "Manufacturer_Name"
F 9 "FERD20H100SB-TR" H 8550 6200 50  0001 L CNN "Manufacturer_Part_Number"
	1    7800 6800
	0    -1   -1   0   
$EndComp
Wire Wire Line
	7800 5900 7850 5900
Wire Wire Line
	7850 5900 7900 5900
Connection ~ 7850 5900
NoConn ~ 8450 5150
Text GLabel 5650 5050 2    50   Input ~ 0
Motor0_Fault
Wire Wire Line
	8350 4950 8350 5150
Wire Wire Line
	5650 4950 8350 4950
Wire Wire Line
	8250 4850 8250 5150
Wire Wire Line
	5650 4850 8250 4850
Text GLabel 13850 1650 1    50   Input ~ 0
Motor0_Break
Text GLabel 13950 1650 1    50   Input ~ 0
Motor0_Direction
Text GLabel 14050 1650 1    50   Input ~ 0
Motor0_Enable
Text GLabel 14250 1650 1    50   Input ~ 0
Motor0_SPI_SLAVE_SELECT
Text GLabel 14350 1650 1    50   Input ~ 0
SPI1_SCK
Text GLabel 14450 1650 1    50   Input ~ 0
SPI1_MOSI
Text GLabel 14550 1650 1    50   Input ~ 0
SPI1_MISO
Text GLabel 14650 1650 1    50   Input ~ 0
Motor0_Fault
Text GLabel 14950 1650 1    50   Input ~ 0
Motor0_Hall2
Text GLabel 14850 1650 1    50   Input ~ 0
Motor0_Hall1
Text GLabel 14750 1650 1    50   Input ~ 0
Motor0_Hall0
$Comp
L Connector_Generic:Conn_01x13 J8
U 1 1 5ED55CC4
P 14450 1850
F 0 "J8" V 14575 1846 50  0000 C CNN
F 1 "MotorControllerBreakout" V 14666 1846 50  0000 C CNN
F 2 "Connector_PinHeader_2.54mm:PinHeader_1x13_P2.54mm_Vertical" H 14450 1850 50  0001 C CNN
F 3 "~" H 14450 1850 50  0001 C CNN
	1    14450 1850
	0    1    1    0   
$EndComp
Text GLabel 14150 1650 1    50   Input ~ 0
Motor0_PWM
$Comp
L power:GND #PWR0163
U 1 1 5ED798A1
P 15050 1650
F 0 "#PWR0163" H 15050 1400 50  0001 C CNN
F 1 "GND" H 15055 1477 50  0000 C CNN
F 2 "" H 15050 1650 50  0001 C CNN
F 3 "" H 15050 1650 50  0001 C CNN
	1    15050 1650
	-1   0    0    1   
$EndComp
$EndSCHEMATC
