Item,Number,Cost at 1,Cost at 100,Total at 1,Total at 100,Link,Subbing
12101C475K4T2A,1,0.94,0.512,0.94,0.512,https://www.mouser.com/ProductDetail/AVX/12101C475K4T2A?qs=%2Fha2pyFaduj0Qf1sIlj%2FpxSXLASI3lHISF1%252Bv28llwKbrMtUkGo2bQ%3D%3D,UMK325B7475MM-P
06035C182KAT2A,1,0.1,0.038,0.1,0.038,https://www.mouser.com/ProductDetail/AVX/06035C182KAT2A?qs=sGAEpiMZZMs0AnBnWHyRQE2IRmxFPR1e04W4SIJAi98%3D,
101181920001LF,1,0.37,0.238,0.37,0.238,https://www.mouser.com/ProductDetail/Amphenol-FCI/10118192-0001LF?qs=%2Fha2pyFadujgPm4iVaIQmEqHTTEeRpgtAiCrZ2BJPefjogxKMENrKQ%3D%3D,
1985975,1,2.42,2.07,2.42,2.07,https://www.mouser.com/ProductDetail/Phoenix-Contact/1985975?qs=sGAEpiMZZMvlX3nhDDO4AMHjlR%252BYxZ8kjH7UomEVKMs%3D,
865080343008,6,0.28,0.2,1.68,1.2,,
ABLS-8.000MHZ-B4-T,1,0.25,0.167,0.25,0.167,https://www.mouser.com/ProductDetail/ABRACON/ABLS-8000MHZ-B4-T?qs=%2Fha2pyFaduh7fNnNr%2FIxjMMfqqmYcL9%252BC1H0XHgK%2FS06B%252BrgH41q9vi6PMBJlQjS,
C0603C471K2RACAUTO,1,0.26,0.1,0.26,0.1,https://www.mouser.com/ProductDetail/KEMET/C0603C471K2RACAUTO?qs=sGAEpiMZZMs0AnBnWHyRQNINl8eVJlfy3Bq%2F3yyK6Hk%3D,
C0603C222J5RACAUTO,1,0.1,0.03,0.1,0.03,https://www.mouser.com/ProductDetail/KEMET/C0603C222J5RACAUTO?qs=%2Fha2pyFaduiOBgIIGlJ8RV0xHNSwSJz6sjCdyqP3HsUSRm73%252BT%252Bp0hK99%2Fp8Da%252B9,
C0805C333K1RECAUTO,1,0.3,0.1,0.3,0.1,https://www.mouser.com/ProductDetail/KEMET/C0805C333K1RECAUTO?qs=sGAEpiMZZMs0AnBnWHyRQN7%2FAA2D2lPPi9N2Czcp%2FBUqJRePgFdvrw%3D%3D,
C0805X104K1RAC3316,10,0.44,0.157,4.4,1.57,https://www.mouser.com/ProductDetail/KEMET/C0805X104K1RAC3316?qs=%2Fha2pyFaduhu52QIFCbCt%252BSKHLhj%252Bh%252BAD6%252B5cGOqPzSQmWe9gaJry1SMvE10ZglS,
CR0805-FX-1023ELF,3,0.1,0.02,0.3,0.06,https://www.mouser.com/ProductDetail/Bourns/CR0805-FX-1023ELF?qs=%2Fha2pyFaduhahI5VuYfWYRgYRy8jb3sZ4Oh46BfxbxmrWCMzs4o8Vw%3D%3D,
CRCW06032K00FKEAC,2,0.1,0.01,0.2,0.02,https://www.mouser.com/ProductDetail/Vishay-Dale/CRCW06032K00FKEAC?qs=%2Fha2pyFaduhQpfMWkxpuLThNrcnTs0ilEgUX8T39oZ8TkuqmV3pBP8wHaTu2HK96,
CRCW25123R30FKEG,1,0.4,0.114,0.4,0.114,https://www.mouser.com/ProductDetail/Vishay-Dale/CRCW25123R30FKEG?qs=sGAEpiMZZMu61qfTUdNhG2sc57DNpdF2IzA%2FLsj7Aiw%3D,
DMP3099L-7,1,0.33,0.093,0.33,0.093,https://www.mouser.com/ProductDetail/Diodes-Incorporated/DMP3099L-7?qs=%2Fha2pyFadugMqkrT0UIufvqlboo8G%252BktgMxBGQgZO39U08VURyA%2FWg%3D%3D,
DRV8320SRTVR,1,3.45,2.48,3.45,2.48,https://www.mouser.com/ProductDetail/Texas-Instruments/DRV8320SRTVR?qs=sGAEpiMZZMvQcoNRkxSQkrbSyqzE5%252BUqBiGsI0tux5Y%3D,
EDK476M063A9MAA,1,0.49,0.194,0.49,0.194,https://www.mouser.com/ProductDetail/KEMET/EDK476M063A9MAA?qs=%2Fha2pyFaduiPgLtjx87Ch74zWQ8d5SjarNksB2FWSlO9wdMkci4hQQ%3D%3D,
ERJ-3EKF2323V,1,0.1,0.026,0.1,0.026,https://www.mouser.com/ProductDetail/Panasonic/ERJ-3EKF2323V?qs=%2Fha2pyFaduglTbPDDZSypWnAqAZowN6wRXD%252BVNmDf1GaSZd6wvjkjQ%3D%3D,
GRM188R61A106KE69D,2,0.18,0.063,0.36,0.126,https://www.mouser.com/ProductDetail/Murata-Electronics/GRM188R61A106KE69D?qs=sGAEpiMZZMs0AnBnWHyRQIQ9GZ%252BR1NCaPZjWVMvlF0E%3D,
IHLP6767GZER4R7M11,1,5.86,5.37,5.86,5.37,https://www.mouser.com/ProductDetail/Vishay-Dale/IHLP6767GZER4R7M11?qs=%2Fha2pyFadug37ZxLzQMB%252Binx2GMvEGFhUKirEGd2Zfr%252BwTJnXapBuyJWetpxdXQg,
LMK107BJ475MAHT,5,0.27,0.075,1.35,0.375,https://www.mouser.com/ProductDetail/Taiyo-Yuden/LMK107BJ475MAHT?qs=%2Fha2pyFadujgSeV69TKw5HHGWxyqAlRmizNYU31RIErWFPxHdCfd1Q%3D%3D,
NCP1117ST33T3G,1,0.45,0.23,0.45,0.23,https://www.mouser.com/ProductDetail/ON-Semiconductor/NCP1117ST33T3G?qs=%2Fha2pyFaduj4IwJuyCbpkUdbMhVss5DSvD5YQhE4OjqSspN1A8SdWw%3D%3D,
NVMFS5C612NLAFT1G,6,1.86,1.27,11.16,7.62,https://www.mouser.com/ProductDetail/ON-Semiconductor/NVMFS5C612NLAFT1G?qs=%2Fha2pyFadui3zhPXO8TN7S548HJjnrnBzCFW%2F3XRDn%2FKiCOo2vM717TmILMpnkEK,
PTS810SJM250SMTRLFS,2,0.3,0.253,0.6,0.506,https://www.mouser.com/ProductDetail/CK/PTS810SJM250SMTRLFS?qs=%2Fha2pyFaduiFrtvO4K5JuJRb9NCAgKNz%2FcrcUn8a7EBdfcou7yRzfCe5FFlAeMOk,
RC0603FR-1052K3L,2,0.1,0.006,0.2,0.012,https://www.mouser.com/ProductDetail/Yageo/RC0603FR-1052K3L?qs=%2Fha2pyFaduhXXNW8qwNUNn%252BoOI3XVS3%2FBQjmf%2FwEwItzQcGrJUKdhw%3D%3D,
RK73H1HTTCM1022F,2,0.14,0.039,0.28,0.078,https://www.mouser.com/ProductDetail/KOA-Speer/RK73H1HTTCM1022F?qs=%2Fha2pyFaduhB2UL4DWkGD60NKyHOcUGMY0x9V3X%2FyBYkZlsXTy9Aow%3D%3D,
RK73H2BTTD43R0F,1,0.1,0.018,0.1,0.018,https://www.mouser.com/ProductDetail/KOA-Speer/RK73H2BTTD43R0F?qs=%2Fha2pyFadugVcPBXf8T%2FdGMNY7VY0VNfHyxwYOlj%252B3R5epX2PBvBfA%3D%3D,
RT0603CRE0760K4L,1,0.49,0.094,0.49,0.094,https://www.mouser.com/ProductDetail/Yageo/RT0603CRE0760K4L?qs=%2Fha2pyFaduhm16GTH3w%252B2Q8sEblapx2tyWJ1%252BsyydDboBh29fFsZqQ%3D%3D,
SiC462ED-T1-GE3,1,3.78,2.75,3.78,2.75,https://www.mouser.com/ProductDetail/Vishay-Siliconix/SIC462ED-T1-GE3?qs=%2Fha2pyFaduiZsEBLU4MkgCU1r0LKW%2FERf2qfnVQqbRjQyvStAT44xg%3D%3D,
STM32F072RBT6,1,3.93,2.9,3.93,2.9,https://www.mouser.com/ProductDetail/STMicroelectronics/STM32F072RBT6?qs=sGAEpiMZZMvMXbh32ZmHAJeKCMMQDUn6WlKGtkUaawM%3D,
UBC1E221MNS1GS,2,1.26,0.744,2.52,1.488,https://www.mouser.com/ProductDetail/Nichicon/UBC1E221MNS1GS?qs=%2Fha2pyFadujs%2FM%2F3TNPieYf%252BhOSRtNa%252Bjldby%252Bdwh0hRgN8Tx7gS5Q%3D%3D,
UMF212B7473KGHT,1,0.26,0.079,0.26,0.079,https://www.mouser.com/ProductDetail/Taiyo-Yuden/UMF212B7473KGHT?qs=%2Fha2pyFaduhz9OdrneTBlnUQp9RE4EzQLe5VQDI5RgLnLcTuEcTdbw%3D%3D,
,,,,,,,
,,,,,,,
,,,,,,,
,,,,,,,
,,,,,,,
,,,,,,,
,,,,47.43,30.658,,
