PCBNEW-LibModule-V1  2020-03-05 14:38:38
# encoding utf-8
Units mm
$INDEX
CAPC3225X279N
$EndINDEX
$MODULE CAPC3225X279N
Po 0 0 0 15 5e610eee 00000000 ~~
Li CAPC3225X279N
Cd 1210-1
Kw Capacitor
Sc 0
At SMD
AR 
Op 0 0 0
T0 0 0 1.27 1.27 0 0.254 N V 21 N "C**"
T1 0 0 1.27 1.27 0 0.254 N I 21 N "CAPC3225X279N"
DS -2.06 -1.51 2.06 -1.51 0.05 24
DS 2.06 -1.51 2.06 1.51 0.05 24
DS 2.06 1.51 -2.06 1.51 0.05 24
DS -2.06 1.51 -2.06 -1.51 0.05 24
DS -1.6 -1.25 1.6 -1.25 0.1 24
DS 1.6 -1.25 1.6 1.25 0.1 24
DS 1.6 1.25 -1.6 1.25 0.1 24
DS -1.6 1.25 -1.6 -1.25 0.1 24
DS 0 -1.15 0 1.15 0.2 21
$PAD
Po -1.4 0
Sh "1" R 1.02 2.72 0 0 0
At SMD N 00888000
Ne 0 ""
$EndPAD
$PAD
Po 1.4 0
Sh "2" R 1.02 2.72 0 0 0
At SMD N 00888000
Ne 0 ""
$EndPAD
$EndMODULE CAPC3225X279N
$EndLIBRARY
