PCBNEW-LibModule-V1  2020-03-03 16:25:06
# encoding utf-8
Units mm
$INDEX
SHDR3W100P0X500_1X3_1500X1120X1820P
$EndINDEX
$MODULE SHDR3W100P0X500_1X3_1500X1120X1820P
Po 0 0 0 15 5e5e84e2 00000000 ~~
Li SHDR3W100P0X500_1X3_1500X1120X1820P
Cd 1985975
Kw Connector
Sc 0
At STD
AR 
Op 0 0 0
T0 0 0 1.27 1.27 0 0.254 N V 21 N "J**"
T1 0 0 1.27 1.27 0 0.254 N I 21 N "SHDR3W100P0X500_1X3_1500X1120X1820P"
DS -2.85 5.65 -2.85 -6.2 0.05 24
DS -2.85 -6.2 12.8 -6.2 0.05 24
DS 12.8 -6.2 12.8 5.65 0.05 24
DS 12.8 5.65 -2.85 5.65 0.05 24
DS -2.6 5.4 -2.6 -5.95 0.1 24
DS -2.6 -5.95 12.55 -5.95 0.1 24
DS 12.55 -5.95 12.55 5.4 0.1 24
DS 12.55 5.4 -2.6 5.4 0.1 24
DS 0 5.4 12.55 5.4 0.2 21
DS 12.55 5.4 12.55 -5.95 0.2 21
DS 12.55 -5.95 -2.6 -5.95 0.2 21
DS -2.6 -5.95 -2.6 0 0.2 21
$PAD
Po 0 0
Sh "1" R 2.4 2.4 0 0 900
Dr 1.6 0 0
At STD N 00E0FFFF
Ne 0 ""
$EndPAD
$PAD
Po 5 0
Sh "2" C 2.4 2.4 0 0 900
Dr 1.6 0 0
At STD N 00E0FFFF
Ne 0 ""
$EndPAD
$PAD
Po 10 0
Sh "3" C 2.4 2.4 0 0 900
Dr 1.6 0 0
At STD N 00E0FFFF
Ne 0 ""
$EndPAD
$EndMODULE SHDR3W100P0X500_1X3_1500X1120X1820P
$EndLIBRARY
