PCBNEW-LibModule-V1  2020-03-05 14:41:29
# encoding utf-8
Units mm
$INDEX
CAPAE660X550N
$EndINDEX
$MODULE CAPAE660X550N
Po 0 0 0 15 5e610f99 00000000 ~~
Li CAPAE660X550N
Cd 865080343008
Kw Capacitor Polarised
Sc 0
At SMD
AR 
Op 0 0 0
T0 0 0 1.27 1.27 0 0.254 N V 21 N "C**"
T1 0 0 1.27 1.27 0 0.254 N I 21 N "CAPAE660X550N"
DS -4.625 -3.9 4.625 -3.9 0.05 24
DS 4.625 -3.9 4.625 3.9 0.05 24
DS 4.625 3.9 -4.625 3.9 0.05 24
DS -4.625 3.9 -4.625 -3.9 0.05 24
DS 3.3 -3.3 -1.65 -3.3 0.1 24
DS -1.65 -3.3 -3.3 -1.65 0.1 24
DS -3.3 -1.65 -3.3 1.65 0.1 24
DS -3.3 1.65 -1.65 3.3 0.1 24
DS -1.65 3.3 3.3 3.3 0.1 24
DS 3.3 3.3 3.3 -3.3 0.1 24
DS -4.125 -3.3 3.3 -3.3 0.2 21
DS -1.65 3.3 3.3 3.3 0.2 21
$PAD
Po -2.55 0
Sh "1" R 1.8 3.15 0 0 900
At SMD N 00888000
Ne 0 ""
$EndPAD
$PAD
Po 2.55 0
Sh "2" R 1.8 3.15 0 0 900
At SMD N 00888000
Ne 0 ""
$EndPAD
$EndMODULE CAPAE660X550N
$EndLIBRARY
