PCBNEW-LibModule-V1  2020-03-03 18:13:31
# encoding utf-8
Units mm
$INDEX
RESC2012X60N
$EndINDEX
$MODULE RESC2012X60N
Po 0 0 0 15 5e5e9e4b 00000000 ~~
Li RESC2012X60N
Cd CR0805
Kw Resistor
Sc 0
At SMD
AR 
Op 0 0 0
T0 0 0 1.27 1.27 0 0.254 N V 21 N "R**"
T1 0 0 1.27 1.27 0 0.254 N I 21 N "RESC2012X60N"
DS -1.7 -1 1.7 -1 0.05 24
DS 1.7 -1 1.7 1 0.05 24
DS 1.7 1 -1.7 1 0.05 24
DS -1.7 1 -1.7 -1 0.05 24
DS -1 -0.625 1 -0.625 0.1 24
DS 1 -0.625 1 0.625 0.1 24
DS 1 0.625 -1 0.625 0.1 24
DS -1 0.625 -1 -0.625 0.1 24
DS 0 -0.525 0 0.525 0.2 21
$PAD
Po -0.95 0
Sh "1" R 1 1.45 0 0 0
At SMD N 00888000
Ne 0 ""
$EndPAD
$PAD
Po 0.95 0
Sh "2" R 1 1.45 0 0 0
At SMD N 00888000
Ne 0 ""
$EndPAD
$EndMODULE RESC2012X60N
$EndLIBRARY
