PCBNEW-LibModule-V1  2020-04-05 15:23:04
# encoding utf-8
Units mm
$INDEX
RESC1608X55N
$EndINDEX
$MODULE RESC1608X55N
Po 0 0 0 15 5e89e9c8 00000000 ~~
Li RESC1608X55N
Cd ERJ3EK(0603)
Kw Resistor
Sc 0
At SMD
AR 
Op 0 0 0
T0 0 0 1.27 1.27 0 0.254 N V 21 N "R**"
T1 0 0 1.27 1.27 0 0.254 N I 21 N "RESC1608X55N"
DS -1.5 -0.75 1.5 -0.75 0.05 24
DS 1.5 -0.75 1.5 0.75 0.05 24
DS 1.5 0.75 -1.5 0.75 0.05 24
DS -1.5 0.75 -1.5 -0.75 0.05 24
DS -0.8 -0.425 0.8 -0.425 0.1 24
DS 0.8 -0.425 0.8 0.425 0.1 24
DS 0.8 0.425 -0.8 0.425 0.1 24
DS -0.8 0.425 -0.8 -0.425 0.1 24
DS 0 -0.325 0 0.325 0.2 21
$PAD
Po -0.8 0
Sh "1" R 0.9 1 0 0 0
At SMD N 00888000
Ne 0 ""
$EndPAD
$PAD
Po 0.8 0
Sh "2" R 0.9 1 0 0 0
At SMD N 00888000
Ne 0 ""
$EndPAD
$EndMODULE RESC1608X55N
$EndLIBRARY
