PCBNEW-LibModule-V1  2020-04-05 15:54:59
# encoding utf-8
Units mm
$INDEX
FERD20H100SBTR
$EndINDEX
$MODULE FERD20H100SBTR
Po 0 0 0 15 5e89f143 00000000 ~~
Li FERD20H100SBTR
Cd FERD20H100SB-TR-2
Kw Diode
Sc 0
At SMD
AR 
Op 0 0 0
T0 -0.925 -0 1.27 1.27 0 0.254 N V 21 N "D**"
T1 -0.925 -0 1.27 1.27 0 0.254 N I 21 N "FERD20H100SBTR"
DS -3.27 -3.047 3.27 -3.047 0.2 24
DS 3.27 -3.047 3.27 3.047 0.2 24
DS 3.27 3.047 -3.27 3.047 0.2 24
DS -3.27 3.047 -3.27 -3.047 0.2 24
DS -8.275 -4.35 6.425 -4.35 0.1 24
DS 6.425 -4.35 6.425 4.35 0.1 24
DS 6.425 4.35 -8.275 4.35 0.1 24
DS -8.275 4.35 -8.275 -4.35 0.1 24
DS -0.4 -3.047 2.2 -3.047 0.1 21
DS 3.27 -1.25 3.27 1.25 0.1 21
DS -0.4 3.047 2.2 3.047 0.1 21
$PAD
Po 3.925 2.286
Sh "1" R 1.600 3.000 0 0 900
At SMD N 00888000
Ne 0 ""
$EndPAD
$PAD
Po -3.925 -0
Sh "2" R 6.700 6.700 0 0 900
At SMD N 00888000
Ne 0 ""
$EndPAD
$PAD
Po 3.925 -2.286
Sh "3" R 1.600 3.000 0 0 900
At SMD N 00888000
Ne 0 ""
$EndPAD
$EndMODULE FERD20H100SBTR
$EndLIBRARY
