(module "RESC3216X70N" (layer F.Cu)
  (descr "2B(1206)")
  (tags "Resistor")
  (attr smd)
  (fp_text reference R** (at 0 0) (layer F.SilkS)
    (effects (font (size 1.27 1.27) (thickness 0.254)))
  )
  (fp_text user %R (at 0 0) (layer F.Fab)
    (effects (font (size 1.27 1.27) (thickness 0.254)))
  )
  (fp_text value "RESC3216X70N" (at 0 0) (layer F.SilkS) hide
    (effects (font (size 1.27 1.27) (thickness 0.254)))
  )
  (fp_line (start -2.325 -1.15) (end 2.325 -1.15) (layer F.CrtYd) (width 0.05))
  (fp_line (start 2.325 -1.15) (end 2.325 1.15) (layer F.CrtYd) (width 0.05))
  (fp_line (start 2.325 1.15) (end -2.325 1.15) (layer F.CrtYd) (width 0.05))
  (fp_line (start -2.325 1.15) (end -2.325 -1.15) (layer F.CrtYd) (width 0.05))
  (fp_line (start -1.6 -0.8) (end 1.6 -0.8) (layer F.Fab) (width 0.1))
  (fp_line (start 1.6 -0.8) (end 1.6 0.8) (layer F.Fab) (width 0.1))
  (fp_line (start 1.6 0.8) (end -1.6 0.8) (layer F.Fab) (width 0.1))
  (fp_line (start -1.6 0.8) (end -1.6 -0.8) (layer F.Fab) (width 0.1))
  (fp_line (start 0 -0.7) (end 0 0.7) (layer F.SilkS) (width 0.2))
  (pad 1 smd rect (at -1.55 0 0) (size 1.05 1.8) (layers F.Cu F.Paste F.Mask))
  (pad 2 smd rect (at 1.55 0 0) (size 1.05 1.8) (layers F.Cu F.Paste F.Mask))
  (model RK73H2BTTD43R0F.stp
    (at (xyz 0 0 0))
    (scale (xyz 1 1 1))
    (rotate (xyz 0 0 0))
  )
)
