PCBNEW-LibModule-V1  2020-03-05 16:47:34
# encoding utf-8
Units mm
$INDEX
SiC462EDT1GE3
$EndINDEX
$MODULE SiC462EDT1GE3
Po 0 0 0 15 5e612d26 00000000 ~~
Li SiC462EDT1GE3
Cd SiC462ED-T1-GE3-2
Kw Integrated Circuit
Sc 0
At SMD
AR 
Op 0 0 0
T0 -0.500 -0.62 1.27 1.27 0 0.254 N V 21 N "IC**"
T1 -0.500 -0.62 1.27 1.27 0 0.254 N I 21 N "SiC462EDT1GE3"
DS -2.5 1.88 2.5 1.88 0.2 24
DS 2.5 1.88 2.5 -3.12 0.2 24
DS 2.5 -3.12 -2.5 -3.12 0.2 24
DS -2.5 -3.12 -2.5 1.88 0.2 24
DS -5 -4.62 4 -4.62 0.1 24
DS 4 -4.62 4 3.38 0.1 24
DS 4 3.38 -5 3.38 0.1 24
DS -5 3.38 -5 -4.62 0.1 24
DS -3.95 -2.22 -3.95 -2.22 0.2 21
DS -3.95 -2.32 -3.95 -2.32 0.2 21
DS -3.95 -2.22 -3.95 -2.22 0.2 21
DA -3.95 -2.27 -3.950 -2.22 -1800 0.2 21
DA -3.95 -2.27 -3.950 -2.32 -1800 0.2 21
DA -3.95 -2.27 -3.950 -2.22 -1800 0.2 21
$PAD
Po -2.526 -2.32
Sh "1" R 0.350 0.950 0 0 900
At SMD N 00888000
Ne 0 ""
$EndPAD
$PAD
Po -2.526 -1.67
Sh "2" R 0.350 0.950 0 0 900
At SMD N 00888000
Ne 0 ""
$EndPAD
$PAD
Po -2.526 -1.02
Sh "3" R 0.350 0.950 0 0 900
At SMD N 00888000
Ne 0 ""
$EndPAD
$PAD
Po -2.526 -0.37
Sh "4" R 0.350 0.950 0 0 900
At SMD N 00888000
Ne 0 ""
$EndPAD
$PAD
Po -2.526 0.63
Sh "5" R 0.350 0.950 0 0 900
At SMD N 00888000
Ne 0 ""
$EndPAD
$PAD
Po -2.526 1.13
Sh "6" R 0.350 0.950 0 0 900
At SMD N 00888000
Ne 0 ""
$EndPAD
$PAD
Po -1.520 2.055
Sh "7" R 0.350 0.650 0 0 0
At SMD N 00888000
Ne 0 ""
$EndPAD
$PAD
Po -0.870 2.055
Sh "8" R 0.350 0.650 0 0 0
At SMD N 00888000
Ne 0 ""
$EndPAD
$PAD
Po 0.260 2.055
Sh "9" R 0.350 0.650 0 0 0
At SMD N 00888000
Ne 0 ""
$EndPAD
$PAD
Po 0.760 2.055
Sh "10" R 0.350 0.650 0 0 0
At SMD N 00888000
Ne 0 ""
$EndPAD
$PAD
Po 1.260 2.055
Sh "11" R 0.350 0.650 0 0 0
At SMD N 00888000
Ne 0 ""
$EndPAD
$PAD
Po 2.675 1.28
Sh "12" R 0.350 0.650 0 0 900
At SMD N 00888000
Ne 0 ""
$EndPAD
$PAD
Po 2.675 0.78
Sh "13" R 0.350 0.650 0 0 900
At SMD N 00888000
Ne 0 ""
$EndPAD
$PAD
Po 2.675 0.28
Sh "14" R 0.350 0.650 0 0 900
At SMD N 00888000
Ne 0 ""
$EndPAD
$PAD
Po 2.525 -0.37
Sh "15" R 0.350 0.950 0 0 900
At SMD N 00888000
Ne 0 ""
$EndPAD
$PAD
Po 2.525 -0.87
Sh "16" R 0.350 0.950 0 0 900
At SMD N 00888000
Ne 0 ""
$EndPAD
$PAD
Po 2.525 -1.37
Sh "17" R 0.350 0.950 0 0 900
At SMD N 00888000
Ne 0 ""
$EndPAD
$PAD
Po 2.525 -1.87
Sh "18" R 0.350 0.950 0 0 900
At SMD N 00888000
Ne 0 ""
$EndPAD
$PAD
Po 2.525 -2.37
Sh "19" R 0.350 0.950 0 0 900
At SMD N 00888000
Ne 0 ""
$EndPAD
$PAD
Po 1.749 -3.145
Sh "20" R 0.350 0.950 0 0 0
At SMD N 00888000
Ne 0 ""
$EndPAD
$PAD
Po 1.249 -3.145
Sh "21" R 0.350 0.950 0 0 0
At SMD N 00888000
Ne 0 ""
$EndPAD
$PAD
Po 0.749 -3.145
Sh "22" R 0.350 0.950 0 0 0
At SMD N 00888000
Ne 0 ""
$EndPAD
$PAD
Po 0.249 -3.145
Sh "23" R 0.350 0.950 0 0 0
At SMD N 00888000
Ne 0 ""
$EndPAD
$PAD
Po -0.251 -3.145
Sh "24" R 0.350 0.950 0 0 0
At SMD N 00888000
Ne 0 ""
$EndPAD
$PAD
Po -0.751 -3.145
Sh "25" R 0.350 0.950 0 0 0
At SMD N 00888000
Ne 0 ""
$EndPAD
$PAD
Po -1.251 -3.145
Sh "26" R 0.350 0.950 0 0 0
At SMD N 00888000
Ne 0 ""
$EndPAD
$PAD
Po -1.751 -3.145
Sh "27" R 0.350 0.950 0 0 0
At SMD N 00888000
Ne 0 ""
$EndPAD
$PAD
Po -0.050 -1.82
Sh "28" R 1.100 3.400 0 0 900
At SMD N 00888000
Ne 0 ""
$EndPAD
$PAD
Po -1.200 0.38
Sh "29" R 1.100 2.700 0 0 0
At SMD N 00888000
Ne 0 ""
$EndPAD
$PAD
Po 0.700 0.865
Sh "30" R 1.730 2.100 0 0 900
At SMD N 00888000
Ne 0 ""
$EndPAD
$PAD
Po 0.410 -0.485
Sh "31" R 0.970 1.520 0 0 900
At SMD N 00888000
Ne 0 ""
$EndPAD
$PAD
Po 2.200 0.78
Sh "32" R 0.300 1.350 0 0 0
At SMD N 00888000
Ne 0 ""
$EndPAD
$EndMODULE SiC462EDT1GE3
$EndLIBRARY
