PCBNEW-LibModule-V1  2020-03-05 14:42:17
# encoding utf-8
Units mm
$INDEX
CAPAE1030X1100N
$EndINDEX
$MODULE CAPAE1030X1100N
Po 0 0 0 15 5e610fc9 00000000 ~~
Li CAPAE1030X1100N
Cd 10*10-
Kw Capacitor Polarised
Sc 0
At SMD
AR 
Op 0 0 0
T0 0 0 1.27 1.27 0 0.254 N V 21 N "C**"
T1 0 0 1.27 1.27 0 0.254 N I 21 N "CAPAE1030X1100N"
DS -6.85 -5.75 6.85 -5.75 0.05 24
DS 6.85 -5.75 6.85 5.75 0.05 24
DS 6.85 5.75 -6.85 5.75 0.05 24
DS -6.85 5.75 -6.85 -5.75 0.05 24
DS 5.15 -5.15 -2.575 -5.15 0.1 24
DS -2.575 -5.15 -5.15 -2.575 0.1 24
DS -5.15 -2.575 -5.15 2.575 0.1 24
DS -5.15 2.575 -2.575 5.15 0.1 24
DS -2.575 5.15 5.15 5.15 0.1 24
DS 5.15 5.15 5.15 -5.15 0.1 24
DS -6.35 -5.15 5.15 -5.15 0.2 21
DS -2.575 5.15 5.15 5.15 0.2 21
$PAD
Po -4.2 0
Sh "1" R 2.5 4.3 0 0 900
At SMD N 00888000
Ne 0 ""
$EndPAD
$PAD
Po 4.2 0
Sh "2" R 2.5 4.3 0 0 900
At SMD N 00888000
Ne 0 ""
$EndPAD
$EndMODULE CAPAE1030X1100N
$EndLIBRARY
