PCBNEW-LibModule-V1  2020-04-05 15:27:20
# encoding utf-8
Units mm
$INDEX
CAPC2012X135N
$EndINDEX
$MODULE CAPC2012X135N
Po 0 0 0 15 5e89eac8 00000000 ~~
Li CAPC2012X135N
Cd 0805
Kw Capacitor
Sc 0
At SMD
AR 
Op 0 0 0
T0 0 0 1.27 1.27 0 0.254 N V 21 N "C**"
T1 0 0 1.27 1.27 0 0.254 N I 21 N "CAPC2012X135N"
DS -1.42 -0.85 1.42 -0.85 0.05 24
DS 1.42 -0.85 1.42 0.85 0.05 24
DS 1.42 0.85 -1.42 0.85 0.05 24
DS -1.42 0.85 -1.42 -0.85 0.05 24
DS -1 -0.625 1 -0.625 0.1 24
DS 1 -0.625 1 0.625 0.1 24
DS 1 0.625 -1 0.625 0.1 24
DS -1 0.625 -1 -0.625 0.1 24
$PAD
Po -0.79 0
Sh "1" R 0.96 1.39 0 0 0
At SMD N 00888000
Ne 0 ""
$EndPAD
$PAD
Po 0.79 0
Sh "2" R 0.96 1.39 0 0 0
At SMD N 00888000
Ne 0 ""
$EndPAD
$EndMODULE CAPC2012X135N
$EndLIBRARY
